Ref: 6Da4568 ;Qt:  88
Ref: 6Db4568 ;Qt:  110
Total Produit: 88
Ref: 6Da4568 ;Qt:  88
Ref: 6Db4568 ;Qt:  110
Total Produit: 88
Ref: 6Da4568 ;Qt:  88
Ref: 6Db4568 ;Qt:  110
Total Produit: 88
Ref: 6Da4568 ;Qt:  88
Ref: 6Db4568 ;Qt:  110
Total Produit: 88
Ref: 6Da4568 ;Qt:  88
Ref: 6Db4568 ;Qt:  110
Total Produit: 88
Ref: 6Da4568 ;Qt:  88
Ref: 6Db4568 ;Qt:  110
Total Produit: 88
Ref: 6Da4568 ;Qt:  88
Ref: 6Db4568 ;Qt:  110
Total Produit: 88
Ref: 6Da4568 ;Qt:  88
Ref: 6Db4568 ;Qt:  110
Total Produit: 88
Ref: 6Da4568 ;Qt:  88
Ref: 6Db4568 ;Qt:  110
Total Produit: 88
Ref: 6Da4568 ;Qt:  88
Ref: 6Db4568 ;Qt:  110
Total Produit: 88
Ref: 6Da4568 ;Qt:  88
Ref: 6Db4568 ;Qt:  110
Total Produit: 88
Ref: 6Da4568 ;Qt:  88
Ref: 6Db4568 ;Qt:  110
Total Produit: 88
Ref: 6Da4568 ;Qt:  88
Ref: 6Db4568 ;Qt:  110
Total Produit: 88
Ref: 6Da4568 ;Qt:  88
Ref: 6Db4568 ;Qt:  110
Total Produit: 88
Ref: 6Da4568 ;Qt:  88
Ref: 6Db4568 ;Qt:  110
Total Produit: 88
Ref: 6Da4568 ;Qt:  88
Ref: 6Db4568 ;Qt:  110
Total Produit: 88
Ref: 6Da4568 ;Qt:  88
Ref: 6Db4568 ;Qt:  110
Total Produit: 88
Ref: 6Da4568 ;Qt:  88
Ref: 6Db4568 ;Qt:  110
Total Produit: 88
Ref: 6Da4568 ;Qt:  88
Ref: 6Db4568 ;Qt:  110
Total Produit: 88
Ref: 6Da4568 ;Qt:  88
Ref: 6Db4568 ;Qt:  110
Total Produit: 88
Ref: 6Da4568 ;Qt:  88
Ref: 6Db4568 ;Qt:  110
Total Produit: 88
Ref: 6Da4568 ;Qt:  88
Ref: 6Db4568 ;Qt:  110
Total Produit: 88
Ref: 6Da4568 ;Qt:  88
Ref: 6Db4568 ;Qt:  110
Total Produit: 88
Ref: 6Da4568 ;Qt:  88
Ref: 6Db4568 ;Qt:  110
Total Produit: 88
Ref: 6Da4568 ;Qt:  88
Ref: 6Db4568 ;Qt:  110
Total Produit: 88
Ref: 6Da4568 ;Qt:  88
Ref: 6Db4568 ;Qt:  110
Total Produit: 88
Ref: 6Da4568 ;Qt:  88
Ref: 6Db4568 ;Qt:  110
Total Produit: 88
Ref: 6Da4568 ;Qt:  88
Ref: 6Db4568 ;Qt:  110
Total Produit: 88
Ref: 6Da4568 ;Qt:  88
Ref: 6Db4568 ;Qt:  110
Total Produit: 88
Ref: 6Da4568 ;Qt:  88
Ref: 6Db4568 ;Qt:  110
Total Produit: 88
Ref: 6Da4568 ;Qt:  88
Ref: 6Db4568 ;Qt:  110
Total Produit: 88
Ref: 6Da4568 ;Qt:  88
Ref: 6Db4568 ;Qt:  110
Total Produit: 88
Ref: 6Da4568 ;Qt:  88
Ref: 6Db4568 ;Qt:  110
Total Produit: 88
Ref: 6Da4568 ;Qt:  88
Ref: 6Db4568 ;Qt:  110
Total Produit: 88
Ref: 6Da4568 ;Qt:  88
Ref: 6Db4568 ;Qt:  110
Total Produit: 88
Ref: 6Da4568 ;Qt:  88
Ref: 6Db4568 ;Qt:  110
Total Produit: 88
Ref: 6Da4568 ;Qt:  88
Ref: 6Db4568 ;Qt:  110
Total Produit: 88
Ref: 6Da4568 ;Qt:  88
Ref: 6Db4568 ;Qt:  110
Total Produit: 88
Ref: 6Da4568 ;Qt:  88
Ref: 6Db4568 ;Qt:  110
Total Produit: 88
Ref: 6Da4568 ;Qt:  88
Ref: 6Db4568 ;Qt:  110
Total Produit: 88
Ref: 6Da4568 ;Qt:  88
Ref: 6Db4568 ;Qt:  110
Total Produit: 88
Ref: 6Da4568 ;Qt:  88
Ref: 6Db4568 ;Qt:  110
Total Produit: 88
Ref: 6Da4568 ;Qt:  88
Ref: 6Db4568 ;Qt:  110
Total Produit: 88
Ref: 6Da4568 ;Qt:  88
Ref: 6Db4568 ;Qt:  110
Total Produit: 88
Ref: 6Da4568 ;Qt:  88
Ref: 6Db4568 ;Qt:  110
Total Produit: 88
Ref: 6Da4568 ;Qt:  88
Ref: 6Db4568 ;Qt:  110
Total Produit: 88
Ref: 6Da4568 ;Qt:  88
Ref: 6Db4568 ;Qt:  110
Total Produit: 88
Ref: 6Da4568 ;Qt:  88
Ref: 6Db4568 ;Qt:  110
Total Produit: 88
Ref: 6Da4568 ;Qt:  88
Ref: 6Db4568 ;Qt:  110
Total Produit: 88
Ref: 6Da4568 ;Qt:  88
Ref: 6Db4568 ;Qt:  110
Total Produit: 88
Ref: 6Da4568 ;Qt:  88
Ref: 6Db4568 ;Qt:  110
Total Produit: 88
Ref: 6Da4568 ;Qt:  88
Ref: 6Db4568 ;Qt:  110
Total Produit: 88
Ref: 6Da4568 ;Qt:  88
Ref: 6Db4568 ;Qt:  110
Total Produit: 88
Ref: 6Da4568 ;Qt:  88
Ref: 6Db4568 ;Qt:  110
Total Produit: 88
Ref: 6Da4568 ;Qt:  88
Ref: 6Db4568 ;Qt:  110
Total Produit: 88
Ref: 6Da4568 ;Qt:  88
Ref: 6Db4568 ;Qt:  110
Total Produit: 88
Ref: 6Da4568 ;Qt:  88
Ref: 6Db4568 ;Qt:  110
Total Produit: 88
Ref: 6Da4568 ;Qt:  88
Ref: 6Db4568 ;Qt:  110
Total Produit: 88
Ref: 6Da4568 ;Qt:  88
Ref: 6Db4568 ;Qt:  110
Total Produit: 88
Ref: 6Da4568 ;Qt:  88
Ref: 6Db4568 ;Qt:  110
Total Produit: 88
Ref: 6Da4568 ;Qt:  88
Ref: 6Db4568 ;Qt:  110
Total Produit: 88
Ref: 6Da4568 ;Qt:  88
Ref: 6Db4568 ;Qt:  110
Total Produit: 88
Ref: 6Da4568 ;Qt:  88
Ref: 6Db4568 ;Qt:  110
Total Produit: 88
Ref: 6Da4568 ;Qt:  88
Ref: 6Db4568 ;Qt:  110
Total Produit: 88
Ref: 6Da4568 ;Qt:  88
Ref: 6Db4568 ;Qt:  110
Total Produit: 88
Ref: 6Da4568 ;Qt:  88
Ref: 6Db4568 ;Qt:  110
Total Produit: 88
Ref: 6Da4568 ;Qt:  88
Ref: 6Db4568 ;Qt:  110
Total Produit: 88
Ref: 6Da4568 ;Qt:  88
Ref: 6Db4568 ;Qt:  110
Total Produit: 88
Ref: 6Da4568 ;Qt:  88
Ref: 6Db4568 ;Qt:  110
Total Produit: 88
Ref: 6Da4568 ;Qt:  88
Ref: 6Db4568 ;Qt:  110
Total Produit: 88
Ref: 6Da4568 ;Qt:  88
Ref: 6Db4568 ;Qt:  110
Total Produit: 88
Ref: 6Da4568 ;Qt:  88
Ref: 6Db4568 ;Qt:  110
Total Produit: 88
Ref: 6Da4568 ;Qt:  88
Ref: 6Db4568 ;Qt:  110
Total Produit: 88
Ref: 6Da4568 ;Qt:  88
Ref: 6Db4568 ;Qt:  110
Total Produit: 88
Ref: 6Da4568 ;Qt:  88
Ref: 6Db4568 ;Qt:  110
Total Produit: 88
Ref: 6Da4568 ;Qt:  88
Ref: 6Db4568 ;Qt:  110
Total Produit: 88
Ref: 6Da4568 ;Qt:  88
Ref: 6Db4568 ;Qt:  110
Total Produit: 88
Ref: 6Da4568 ;Qt:  88
Ref: 6Db4568 ;Qt:  110
Total Produit: 88
Ref: 6Da4568 ;Qt:  88
Ref: 6Db4568 ;Qt:  110
Total Produit: 88
Ref: 6Da4568 ;Qt:  88
Ref: 6Db4568 ;Qt:  110
Total Produit: 88
Ref: 6Da4568 ;Qt:  88
Ref: 6Db4568 ;Qt:  110
Total Produit: 88
Ref: 6Da4568 ;Qt:  88
Ref: 6Db4568 ;Qt:  110
Total Produit: 88
Ref: 6Da4568 ;Qt:  88
Ref: 6Db4568 ;Qt:  110
Total Produit: 88
Ref: 6Da4568 ;Qt:  88
Ref: 6Db4568 ;Qt:  110
Total Produit: 88
Ref: 6Da4568 ;Qt:  88
Ref: 6Db4568 ;Qt:  110
Total Produit: 88
Ref: 6Da4568 ;Qt:  88
Ref: 6Db4568 ;Qt:  110
Total Produit: 88
Ref: 6Da4568 ;Qt:  88
Ref: 6Db4568 ;Qt:  110
Total Produit: 88
Ref: 6Da4568 ;Qt:  88
Ref: 6Db4568 ;Qt:  110
Total Produit: 88
Ref: 6Da4568 ;Qt:  88
Ref: 6Db4568 ;Qt:  110
Total Produit: 88
Ref: 6Da4568 ;Qt:  88
Ref: 6Db4568 ;Qt:  110
Total Produit: 88
Ref: 6Da4568 ;Qt:  88
Ref: 6Db4568 ;Qt:  110
Total Produit: 88
Ref: 6Da4568 ;Qt:  88
Ref: 6Db4568 ;Qt:  110
Total Produit: 88
Ref: 6Da4568 ;Qt:  88
Ref: 6Db4568 ;Qt:  110
Total Produit: 88
Ref: 6Da4568 ;Qt:  88
Ref: 6Db4568 ;Qt:  110
Total Produit: 88
Ref: 6Da4568 ;Qt:  88
Ref: 6Db4568 ;Qt:  110
Total Produit: 88
Ref: 6Da4568 ;Qt:  88
Ref: 6Db4568 ;Qt:  110
Total Produit: 88
Ref: 6Da4568 ;Qt:  88
Ref: 6Db4568 ;Qt:  110
Total Produit: 88
Ref: 6Da4568 ;Qt:  88
Ref: 6Db4568 ;Qt:  110
Total Produit: 88
Ref: 6Da4568 ;Qt:  88
Ref: 6Db4568 ;Qt:  110
Total Produit: 88
Ref: 6Da4568 ;Qt:  88
Ref: 6Db4568 ;Qt:  110
Total Produit: 88
Ref: 6Da4568 ;Qt:  88
Ref: 6Db4568 ;Qt:  110
Total Produit: 88
Ref: 6Da4568 ;Qt:  88
Ref: 6Db4568 ;Qt:  110
Total Produit: 88
Ref: 6Da4568 ;Qt:  88
Ref: 6Db4568 ;Qt:  110
Total Produit: 88
Ref: 6Da4568 ;Qt:  88
Ref: 6Db4568 ;Qt:  110
Total Produit: 88
Ref: 6Da4568 ;Qt:  88
Ref: 6Db4568 ;Qt:  110
Total Produit: 88
Ref: 6Da4568 ;Qt:  88
Ref: 6Db4568 ;Qt:  110
Total Produit: 88
Ref: 6Da4568 ;Qt:  88
Ref: 6Db4568 ;Qt:  110
Total Produit: 88
Ref: 6Da4568 ;Qt:  88
Ref: 6Db4568 ;Qt:  110
Total Produit: 88
Ref: 6Da4568 ;Qt:  88
Ref: 6Db4568 ;Qt:  110
Total Produit: 88
Ref: 6Da4568 ;Qt:  88
Ref: 6Db4568 ;Qt:  110
Total Produit: 88
Ref: 6Da4568 ;Qt:  88
Ref: 6Db4568 ;Qt:  110
Total Produit: 88
Ref: 6Da4568 ;Qt:  88
Ref: 6Db4568 ;Qt:  110
Total Produit: 88
Ref: 6Da4568 ;Qt:  88
Ref: 6Db4568 ;Qt:  110
Total Produit: 88
Ref: 6Da4568 ;Qt:  88
Ref: 6Db4568 ;Qt:  110
Total Produit: 88
Ref: 6Da4568 ;Qt:  88
Ref: 6Db4568 ;Qt:  110
Total Produit: 88
Ref: 6Da4568 ;Qt:  88
Ref: 6Db4568 ;Qt:  110
Total Produit: 88
Ref: 6Da4568 ;Qt:  88
Ref: 6Db4568 ;Qt:  110
Total Produit: 88
Ref: 6Da4568 ;Qt:  88
Ref: 6Db4568 ;Qt:  110
Total Produit: 88
Ref: 6Da4568 ;Qt:  88
Ref: 6Db4568 ;Qt:  110
Total Produit: 88
Ref: 6Da4568 ;Qt:  88
Ref: 6Db4568 ;Qt:  110
Total Produit: 88
Ref: 6Da4568 ;Qt:  88
Ref: 6Db4568 ;Qt:  110
Total Produit: 88
Ref: 6Da4568 ;Qt:  88
Ref: 6Db4568 ;Qt:  110
Total Produit: 88
Ref: 6Da4568 ;Qt:  88
Ref: 6Db4568 ;Qt:  110
Total Produit: 88
Ref: 6Da4568 ;Qt:  88
Ref: 6Db4568 ;Qt:  110
Total Produit: 88
Ref: 6Da4568 ;Qt:  88
Ref: 6Db4568 ;Qt:  110
Total Produit: 88
Ref: 6Da4568 ;Qt:  88
Ref: 6Db4568 ;Qt:  110
Total Produit: 88
Ref: 6Da4568 ;Qt:  88
Ref: 6Db4568 ;Qt:  110
Total Produit: 88
Ref: 6Da4568 ;Qt:  88
Ref: 6Db4568 ;Qt:  110
Total Produit: 88
Ref: 6Da4568 ;Qt:  88
Ref: 6Db4568 ;Qt:  110
Total Produit: 88
Ref: 6Da4568 ;Qt:  88
Ref: 6Db4568 ;Qt:  110
Total Produit: 88
Ref: 6Da4568 ;Qt:  88
Ref: 6Db4568 ;Qt:  110
Total Produit: 88
Ref: 6Da4568 ;Qt:  88
Ref: 6Db4568 ;Qt:  110
Total Produit: 88
Ref: 6Da4568 ;Qt:  88
Ref: 6Db4568 ;Qt:  110
Total Produit: 88
Ref: 6Da4568 ;Qt:  88
Ref: 6Db4568 ;Qt:  110
Total Produit: 88
Ref: 6Da4568 ;Qt:  88
Ref: 6Db4568 ;Qt:  110
Total Produit: 88
Ref: 6Da4568 ;Qt:  88
Ref: 6Db4568 ;Qt:  110
Total Produit: 88
Ref: 6Da4568 ;Qt:  88
Ref: 6Db4568 ;Qt:  110
Total Produit: 88
Ref: 6Da4568 ;Qt:  88
Ref: 6Db4568 ;Qt:  110
Total Produit: 88
Ref: 6Da4568 ;Qt:  88
Ref: 6Db4568 ;Qt:  110
Total Produit: 88
Ref: 6Da4568 ;Qt:  88
Ref: 6Db4568 ;Qt:  110
Total Produit: 88
Ref: 6Da4568 ;Qt:  88
Ref: 6Db4568 ;Qt:  110
Total Produit: 88
Ref: 6Da4568 ;Qt:  88
Ref: 6Db4568 ;Qt:  110
Total Produit: 88
Ref: 6Da4568 ;Qt:  88
Ref: 6Db4568 ;Qt:  110
Total Produit: 88
Ref: 6Da4568 ;Qt:  88
Ref: 6Db4568 ;Qt:  110
Total Produit: 88
Ref: 6Da4568 ;Qt:  88
Ref: 6Db4568 ;Qt:  110
Total Produit: 88
Ref: 6Da4568 ;Qt:  88
Ref: 6Db4568 ;Qt:  110
Total Produit: 88
Ref: 6Da4568 ;Qt:  88
Ref: 6Db4568 ;Qt:  110
Total Produit: 88
Ref: 6Da4568 ;Qt:  88
Ref: 6Db4568 ;Qt:  110
Total Produit: 88
Ref: 6Da4568 ;Qt:  88
Ref: 6Db4568 ;Qt:  110
Total Produit: 88
Ref: 6Da4568 ;Qt:  88
Ref: 6Db4568 ;Qt:  110
Total Produit: 88
Ref: 6Da4568 ;Qt:  88
Ref: 6Db4568 ;Qt:  110
Total Produit: 88
Ref: 6Da4568 ;Qt:  88
Ref: 6Db4568 ;Qt:  110
Total Produit: 88
Ref: 6Da4568 ;Qt:  88
Ref: 6Db4568 ;Qt:  110
Total Produit: 88
Ref: 6Da4568 ;Qt:  88
Ref: 6Db4568 ;Qt:  110
Total Produit: 88
Ref: 6Da4568 ;Qt:  88
Ref: 6Db4568 ;Qt:  110
Total Produit: 88
Ref: 6Da4568 ;Qt:  88
Ref: 6Db4568 ;Qt:  110
Total Produit: 88
Ref: 6Da4568 ;Qt:  88
Ref: 6Db4568 ;Qt:  110
Total Produit: 88
Ref: 6Da4568 ;Qt:  88
Ref: 6Db4568 ;Qt:  110
Total Produit: 88
Ref: 6Da4568 ;Qt:  88
Ref: 6Db4568 ;Qt:  110
Total Produit: 88
Ref: 6Da4568 ;Qt:  88
Ref: 6Db4568 ;Qt:  110
Total Produit: 88
Ref: 6Da4568 ;Qt:  88
Ref: 6Db4568 ;Qt:  110
Total Produit: 88
Ref: 6Da4568 ;Qt:  88
Ref: 6Db4568 ;Qt:  110
Total Produit: 88
Ref: 6Da4568 ;Qt:  88
Ref: 6Db4568 ;Qt:  110
Total Produit: 88
Ref: 6Da4568 ;Qt:  88
Ref: 6Db4568 ;Qt:  110
Total Produit: 88
Ref: 6Da4568 ;Qt:  88
Ref: 6Db4568 ;Qt:  110
Total Produit: 88
Ref: 6Da4568 ;Qt:  88
Ref: 6Db4568 ;Qt:  110
Total Produit: 88
Ref: 6Da4568 ;Qt:  88
Ref: 6Db4568 ;Qt:  110
Total Produit: 88
Ref: 6Da4568 ;Qt:  88
Ref: 6Db4568 ;Qt:  110
Total Produit: 88
Ref: 6Da4568 ;Qt:  88
Ref: 6Db4568 ;Qt:  110
Total Produit: 88
Ref: 6Da4568 ;Qt:  88
Ref: 6Db4568 ;Qt:  110
Total Produit: 88
Ref: 6Da4568 ;Qt:  88
Ref: 6Db4568 ;Qt:  110
Total Produit: 88
Ref: 6Da4568 ;Qt:  88
Ref: 6Db4568 ;Qt:  110
Total Produit: 88
Ref: 6Da4568 ;Qt:  88
Ref: 6Db4568 ;Qt:  110
Total Produit: 88
Ref: 6Da4568 ;Qt:  88
Ref: 6Db4568 ;Qt:  110
Total Produit: 88
Ref: 6Da4568 ;Qt:  88
Ref: 6Db4568 ;Qt:  110
Total Produit: 88
Ref: 6Da4568 ;Qt:  88
Ref: 6Db4568 ;Qt:  110
Total Produit: 88
Ref: 6Da4568 ;Qt:  88
Ref: 6Db4568 ;Qt:  110
Total Produit: 88
Ref: 6Da4568 ;Qt:  88
Ref: 6Db4568 ;Qt:  110
Total Produit: 88
Ref: 6Da4568 ;Qt:  88
Ref: 6Db4568 ;Qt:  110
Total Produit: 88
Ref: 6Da4568 ;Qt:  88
Ref: 6Db4568 ;Qt:  110
Total Produit: 88
Ref: 6Da4568 ;Qt:  88
Ref: 6Db4568 ;Qt:  110
Total Produit: 88
Ref: 6Da4568 ;Qt:  88
Ref: 6Db4568 ;Qt:  110
Total Produit: 88
Ref: 6Da4568 ;Qt:  88
Ref: 6Db4568 ;Qt:  110
Total Produit: 88
Ref: 6Da4568 ;Qt:  88
Ref: 6Db4568 ;Qt:  110
Total Produit: 88
Ref: 6Da4568 ;Qt:  88
Ref: 6Db4568 ;Qt:  110
Total Produit: 88
Ref: 6Da4568 ;Qt:  88
Ref: 6Db4568 ;Qt:  110
Total Produit: 88
Ref: 6Da4568 ;Qt:  88
Ref: 6Db4568 ;Qt:  110
Total Produit: 88
Ref: 6Da4568 ;Qt:  88
Ref: 6Db4568 ;Qt:  110
Total Produit: 88
Ref: 6Da4568 ;Qt:  88
Ref: 6Db4568 ;Qt:  110
Total Produit: 88
Ref: 6Da4568 ;Qt:  88
Ref: 6Db4568 ;Qt:  110
Total Produit: 88
Ref: 6Da4568 ;Qt:  88
Ref: 6Db4568 ;Qt:  110
Total Produit: 88
Ref: 6Da4568 ;Qt:  88
Ref: 6Db4568 ;Qt:  110
Total Produit: 88
Ref: 6Da4568 ;Qt:  88
Ref: 6Db4568 ;Qt:  110
Total Produit: 88
Ref: 6Da4568 ;Qt:  88
Ref: 6Db4568 ;Qt:  110
Total Produit: 88
Ref: 6Da4568 ;Qt:  88
Ref: 6Db4568 ;Qt:  110
Total Produit: 88
Ref: 6Da4568 ;Qt:  88
Ref: 6Db4568 ;Qt:  110
Total Produit: 88
Ref: 6Da4568 ;Qt:  88
Ref: 6Db4568 ;Qt:  110
Total Produit: 88
Ref: 6Da4568 ;Qt:  88
Ref: 6Db4568 ;Qt:  110
Total Produit: 88
Ref: 6Da4568 ;Qt:  88
Ref: 6Db4568 ;Qt:  110
Total Produit: 88
Ref: 6Da4568 ;Qt:  88
Ref: 6Db4568 ;Qt:  110
Total Produit: 88
Ref: 6Da4568 ;Qt:  88
Ref: 6Db4568 ;Qt:  110
Total Produit: 88
Ref: 6Da4568 ;Qt:  88
Ref: 6Db4568 ;Qt:  110
Total Produit: 88
Ref: 6Da4568 ;Qt:  88
Ref: 6Db4568 ;Qt:  110
Total Produit: 88
Ref: 6Da4568 ;Qt:  88
Ref: 6Db4568 ;Qt:  110
Total Produit: 88
Ref: 6Da4568 ;Qt:  88
Ref: 6Db4568 ;Qt:  110
Total Produit: 88
Ref: 6Da4568 ;Qt:  88
Ref: 6Db4568 ;Qt:  110
Total Produit: 88
Ref: 6Da4568 ;Qt:  88
Ref: 6Db4568 ;Qt:  110
Total Produit: 88
Ref: 6Da4568 ;Qt:  88
Ref: 6Db4568 ;Qt:  110
Total Produit: 88
Ref: 6Da4568 ;Qt:  88
Ref: 6Db4568 ;Qt:  110
Total Produit: 88
Ref: 6Da4568 ;Qt:  88
Ref: 6Db4568 ;Qt:  110
Total Produit: 88
Ref: 6Da4568 ;Qt:  88
Ref: 6Db4568 ;Qt:  110
Total Produit: 88
Ref: 6Da4568 ;Qt:  88
Ref: 6Db4568 ;Qt:  110
Total Produit: 88
Ref: 6Da4568 ;Qt:  88
Ref: 6Db4568 ;Qt:  110
Total Produit: 88
Ref: 6Da4568 ;Qt:  88
Ref: 6Db4568 ;Qt:  110
Total Produit: 88
Ref: 6Da4568 ;Qt:  88
Ref: 6Db4568 ;Qt:  110
Total Produit: 88
Ref: 6Da4568 ;Qt:  88
Ref: 6Db4568 ;Qt:  110
Total Produit: 88
Ref: 6Da4568 ;Qt:  88
Ref: 6Db4568 ;Qt:  110
Total Produit: 88
Ref: 6Da4568 ;Qt:  88
Ref: 6Db4568 ;Qt:  110
Total Produit: 88
Ref: 6Da4568 ;Qt:  88
Ref: 6Db4568 ;Qt:  110
Total Produit: 88
Ref: 6Da4568 ;Qt:  88
Ref: 6Db4568 ;Qt:  110
Total Produit: 88
Ref: 6Da4568 ;Qt:  88
Ref: 6Db4568 ;Qt:  110
Total Produit: 88
Ref: 6Da4568 ;Qt:  88
Ref: 6Db4568 ;Qt:  110
Total Produit: 88
Ref: 6Da4568 ;Qt:  88
Ref: 6Db4568 ;Qt:  110
Total Produit: 88
Ref: 6Da4568 ;Qt:  88
Ref: 6Db4568 ;Qt:  110
Total Produit: 88
Ref: 6Da4568 ;Qt:  88
Ref: 6Db4568 ;Qt:  110
Total Produit: 88
Ref: 6Da4568 ;Qt:  88
Ref: 6Db4568 ;Qt:  110
Total Produit: 88
Ref: 6Da4568 ;Qt:  88
Ref: 6Db4568 ;Qt:  110
Total Produit: 88
Ref: 6Da4568 ;Qt:  88
Ref: 6Db4568 ;Qt:  110
Total Produit: 88
Ref: 6Da4568 ;Qt:  88
Ref: 6Db4568 ;Qt:  110
Total Produit: 88
Ref: 6Da4568 ;Qt:  88
Ref: 6Db4568 ;Qt:  110
Total Produit: 88
Ref: 6Da4568 ;Qt:  88
Ref: 6Db4568 ;Qt:  110
Total Produit: 88
Ref: 6Da4568 ;Qt:  88
Ref: 6Db4568 ;Qt:  110
Total Produit: 88
Ref: 6Da4568 ;Qt:  88
Ref: 6Db4568 ;Qt:  110
Total Produit: 88
Ref: 6Da4568 ;Qt:  88
Ref: 6Db4568 ;Qt:  110
Total Produit: 88
Ref: 6Da4568 ;Qt:  88
Ref: 6Db4568 ;Qt:  110
Total Produit: 88
Ref: 6Da4568 ;Qt:  88
Ref: 6Db4568 ;Qt:  110
Total Produit: 88
Ref: 6Da4568 ;Qt:  88
Ref: 6Db4568 ;Qt:  110
Total Produit: 88
Ref: 6Da4568 ;Qt:  88
Ref: 6Db4568 ;Qt:  110
Total Produit: 88
Ref: 6Da4568 ;Qt:  88
Ref: 6Db4568 ;Qt:  110
Total Produit: 88
Ref: 6Da4568 ;Qt:  88
Ref: 6Db4568 ;Qt:  110
Total Produit: 88
Ref: 6Da4568 ;Qt:  88
Ref: 6Db4568 ;Qt:  110
Total Produit: 88
Ref: 6Da4568 ;Qt:  88
Ref: 6Db4568 ;Qt:  110
Total Produit: 88
Ref: 6Da4568 ;Qt:  88
Ref: 6Db4568 ;Qt:  110
Total Produit: 88
Ref: 6Da4568 ;Qt:  88
Ref: 6Db4568 ;Qt:  110
Total Produit: 88
Ref: 6Da4568 ;Qt:  88
Ref: 6Db4568 ;Qt:  110
Total Produit: 88
Ref: 6Da4568 ;Qt:  88
Ref: 6Db4568 ;Qt:  110
Total Produit: 88
Ref: 6Da4568 ;Qt:  88
Ref: 6Db4568 ;Qt:  110
Total Produit: 88
Ref: 6Da4568 ;Qt:  88
Ref: 6Db4568 ;Qt:  110
Total Produit: 88
Ref: 6Da4568 ;Qt:  88
Ref: 6Db4568 ;Qt:  110
Total Produit: 88
Ref: 6Da4568 ;Qt:  88
Ref: 6Db4568 ;Qt:  110
Total Produit: 88
Ref: 6Da4568 ;Qt:  88
Ref: 6Db4568 ;Qt:  110
Total Produit: 88
Ref: 6Da4568 ;Qt:  88
Ref: 6Db4568 ;Qt:  110
Total Produit: 88
Ref: 6Da4568 ;Qt:  88
Ref: 6Db4568 ;Qt:  110
Total Produit: 88
Ref: 6Da4568 ;Qt:  88
Ref: 6Db4568 ;Qt:  110
Total Produit: 88
Ref: 6Da4568 ;Qt:  88
Ref: 6Db4568 ;Qt:  110
Total Produit: 88
Ref: 6Da4568 ;Qt:  88
Ref: 6Db4568 ;Qt:  110
Total Produit: 88
Ref: 6Da4568 ;Qt:  88
Ref: 6Db4568 ;Qt:  110
Total Produit: 88
Ref: 6Da4568 ;Qt:  88
Ref: 6Db4568 ;Qt:  110
Total Produit: 88
Ref: 6Da4568 ;Qt:  88
Ref: 6Db4568 ;Qt:  110
Total Produit: 88
Ref: 6Da4568 ;Qt:  88
Ref: 6Db4568 ;Qt:  110
Total Produit: 88
Ref: 6Da4568 ;Qt:  88
Ref: 6Db4568 ;Qt:  110
Total Produit: 88
Ref: 6Da4568 ;Qt:  88
Ref: 6Db4568 ;Qt:  110
Total Produit: 88
Ref: 6Da4568 ;Qt:  88
Ref: 6Db4568 ;Qt:  110
Total Produit: 88
Ref: 6Da4568 ;Qt:  88
Ref: 6Db4568 ;Qt:  110
Total Produit: 88
Ref: 6Da4568 ;Qt:  88
Ref: 6Db4568 ;Qt:  110
Total Produit: 88
Ref: 6Da4568 ;Qt:  88
Ref: 6Db4568 ;Qt:  110
Total Produit: 88
Ref: 6Da4568 ;Qt:  88
Ref: 6Db4568 ;Qt:  110
Total Produit: 88
Ref: 6Da4568 ;Qt:  88
Ref: 6Db4568 ;Qt:  110
Total Produit: 88
Ref: 6Da4568 ;Qt:  88
Ref: 6Db4568 ;Qt:  110
Total Produit: 88
Ref: 6Da4568 ;Qt:  88
Ref: 6Db4568 ;Qt:  110
Total Produit: 88
Ref: 6Da4568 ;Qt:  88
Ref: 6Db4568 ;Qt:  110
Total Produit: 88
Ref: 6Da4568 ;Qt:  88
Ref: 6Db4568 ;Qt:  110
Total Produit: 88
Ref: 6Da4568 ;Qt:  88
Ref: 6Db4568 ;Qt:  110
Total Produit: 88
Ref: 6Da4568 ;Qt:  88
Ref: 6Db4568 ;Qt:  110
Total Produit: 88
Ref: 6Da4568 ;Qt:  88
Ref: 6Db4568 ;Qt:  110
Total Produit: 88
Ref: 6Da4568 ;Qt:  88
Ref: 6Db4568 ;Qt:  110
Total Produit: 88
Ref: 6Da4568 ;Qt:  88
Ref: 6Db4568 ;Qt:  110
Total Produit: 88
Ref: 6Da4568 ;Qt:  88
Ref: 6Db4568 ;Qt:  110
Total Produit: 88
Ref: 6Da4568 ;Qt:  88
Ref: 6Db4568 ;Qt:  110
Total Produit: 88
Ref: 6Da4568 ;Qt:  88
Ref: 6Db4568 ;Qt:  110
Total Produit: 88
Ref: 6Da4568 ;Qt:  88
Ref: 6Db4568 ;Qt:  110
Total Produit: 88
Ref: 6Da4568 ;Qt:  88
Ref: 6Db4568 ;Qt:  110
Total Produit: 88
Ref: 6Da4568 ;Qt:  88
Ref: 6Db4568 ;Qt:  110
Total Produit: 88
Ref: 6Da4568 ;Qt:  88
Ref: 6Db4568 ;Qt:  110
Total Produit: 88
Ref: 6Da4568 ;Qt:  88
Ref: 6Db4568 ;Qt:  110
Total Produit: 88
Ref: 6Da4568 ;Qt:  88
Ref: 6Db4568 ;Qt:  110
Total Produit: 88
Ref: 6Da4568 ;Qt:  88
Ref: 6Db4568 ;Qt:  110
Total Produit: 88
Ref: 6Da4568 ;Qt:  88
Ref: 6Db4568 ;Qt:  110
Total Produit: 88
Ref: 6Da4568 ;Qt:  88
Ref: 6Db4568 ;Qt:  110
Total Produit: 88
Ref: 6Da4568 ;Qt:  88
Ref: 6Db4568 ;Qt:  110
Total Produit: 88
Ref: 6Da4568 ;Qt:  88
Ref: 6Db4568 ;Qt:  110
Total Produit: 88
Ref: 6Da4568 ;Qt:  88
Ref: 6Db4568 ;Qt:  110
Total Produit: 88
Ref: 6Da4568 ;Qt:  88
Ref: 6Db4568 ;Qt:  110
Total Produit: 88
Ref: 6Da4568 ;Qt:  88
Ref: 6Db4568 ;Qt:  110
Total Produit: 88
Ref: 6Da4568 ;Qt:  88
Ref: 6Db4568 ;Qt:  110
Total Produit: 88
Ref: 6Da4568 ;Qt:  88
Ref: 6Db4568 ;Qt:  110
Total Produit: 88
Ref: 6Da4568 ;Qt:  88
Ref: 6Db4568 ;Qt:  110
Total Produit: 88
Ref: 6Da4568 ;Qt:  88
Ref: 6Db4568 ;Qt:  110
Total Produit: 88
Ref: 6Da4568 ;Qt:  88
Ref: 6Db4568 ;Qt:  110
Total Produit: 88
Ref: 6Da4568 ;Qt:  88
Ref: 6Db4568 ;Qt:  110
Total Produit: 88
Ref: 6Da4568 ;Qt:  88
Ref: 6Db4568 ;Qt:  110
Total Produit: 88
Ref: 6Da4568 ;Qt:  88
Ref: 6Db4568 ;Qt:  110
Total Produit: 88
Ref: 6Da4568 ;Qt:  88
Ref: 6Db4568 ;Qt:  110
Total Produit: 88
Ref: 6Da4568 ;Qt:  88
Ref: 6Db4568 ;Qt:  110
Total Produit: 88
Ref: 6Da4568 ;Qt:  88
Ref: 6Db4568 ;Qt:  110
Total Produit: 88
Ref: 6Da4568 ;Qt:  88
Ref: 6Db4568 ;Qt:  110
Total Produit: 88
Ref: 6Da4568 ;Qt:  88
Ref: 6Db4568 ;Qt:  110
Total Produit: 88
Ref: 6Da4568 ;Qt:  88
Ref: 6Db4568 ;Qt:  110
Total Produit: 88
Ref: 6Da4568 ;Qt:  88
Ref: 6Db4568 ;Qt:  110
Total Produit: 88
Ref: 6Da4568 ;Qt:  88
Ref: 6Db4568 ;Qt:  110
Total Produit: 88
Ref: 6Da4568 ;Qt:  88
Ref: 6Db4568 ;Qt:  110
Total Produit: 88
Ref: 6Da4568 ;Qt:  88
Ref: 6Db4568 ;Qt:  110
Total Produit: 88
Ref: 6Da4568 ;Qt:  88
Ref: 6Db4568 ;Qt:  110
Total Produit: 88
Ref: 6Da4568 ;Qt:  88
Ref: 6Db4568 ;Qt:  110
Total Produit: 88
Ref: 6Da4568 ;Qt:  88
Ref: 6Db4568 ;Qt:  110
Total Produit: 88
Ref: 6Da4568 ;Qt:  88
Ref: 6Db4568 ;Qt:  110
Total Produit: 88
Ref: 6Da4568 ;Qt:  88
Ref: 6Db4568 ;Qt:  110
Total Produit: 88
Ref: 6Da4568 ;Qt:  88
Ref: 6Db4568 ;Qt:  110
Total Produit: 88
Ref: 6Da4568 ;Qt:  88
Ref: 6Db4568 ;Qt:  110
Total Produit: 88
Ref: 6Da4568 ;Qt:  88
Ref: 6Db4568 ;Qt:  110
Total Produit: 88
Ref: 6Da4568 ;Qt:  88
Ref: 6Db4568 ;Qt:  110
Total Produit: 88
Ref: 6Da4568 ;Qt:  88
Ref: 6Db4568 ;Qt:  110
Total Produit: 88
Ref: 6Da4568 ;Qt:  88
Ref: 6Db4568 ;Qt:  110
Total Produit: 88
Ref: 6Da4568 ;Qt:  88
Ref: 6Db4568 ;Qt:  110
Total Produit: 88
Ref: 6Da4568 ;Qt:  88
Ref: 6Db4568 ;Qt:  110
Total Produit: 88
Ref: 6Da4568 ;Qt:  88
Ref: 6Db4568 ;Qt:  110
Total Produit: 88
Ref: 6Da4568 ;Qt:  88
Ref: 6Db4568 ;Qt:  110
Total Produit: 88
Ref: 6Da4568 ;Qt:  88
Ref: 6Db4568 ;Qt:  110
Total Produit: 88
Ref: 6Da4568 ;Qt:  88
Ref: 6Db4568 ;Qt:  110
Total Produit: 88
Ref: 6Da4568 ;Qt:  88
Ref: 6Db4568 ;Qt:  110
Total Produit: 88
Ref: 6Da4568 ;Qt:  88
Ref: 6Db4568 ;Qt:  110
Total Produit: 88
Ref: 6Da4568 ;Qt:  88
Ref: 6Db4568 ;Qt:  110
Total Produit: 88
Ref: 6Da4568 ;Qt:  88
Ref: 6Db4568 ;Qt:  110
Total Produit: 88
Ref: 6Da4568 ;Qt:  88
Ref: 6Db4568 ;Qt:  110
Total Produit: 88
Ref: 6Da4568 ;Qt:  88
Ref: 6Db4568 ;Qt:  110
Total Produit: 88
Ref: 6Da4568 ;Qt:  88
Ref: 6Db4568 ;Qt:  110
Total Produit: 88
Ref: 6Da4568 ;Qt:  88
Ref: 6Db4568 ;Qt:  110
Total Produit: 88
Ref: 6Da4568 ;Qt:  88
Ref: 6Db4568 ;Qt:  110
Total Produit: 88
Ref: 6Da4568 ;Qt:  88
Ref: 6Db4568 ;Qt:  110
Total Produit: 88
Ref: 6Da4568 ;Qt:  88
Ref: 6Db4568 ;Qt:  110
Total Produit: 88
Ref: 6Da4568 ;Qt:  88
Ref: 6Db4568 ;Qt:  110
Total Produit: 88
Ref: 6Da4568 ;Qt:  88
Ref: 6Db4568 ;Qt:  110
Total Produit: 88
Ref: 6Da4568 ;Qt:  88
Ref: 6Db4568 ;Qt:  110
Total Produit: 88
Ref: 6Da4568 ;Qt:  88
Ref: 6Db4568 ;Qt:  110
Total Produit: 88
Ref: 6Da4568 ;Qt:  88
Ref: 6Db4568 ;Qt:  110
Total Produit: 88
Ref: 6Da4568 ;Qt:  88
Ref: 6Db4568 ;Qt:  110
Total Produit: 88
Ref: 6Da4568 ;Qt:  88
Ref: 6Db4568 ;Qt:  110
Total Produit: 88
Ref: 6Da4568 ;Qt:  88
Ref: 6Db4568 ;Qt:  110
Total Produit: 88
Ref: 6Da4568 ;Qt:  88
Ref: 6Db4568 ;Qt:  110
Total Produit: 88
Ref: 6Da4568 ;Qt:  88
Ref: 6Db4568 ;Qt:  110
Total Produit: 88
Ref: 6Da4568 ;Qt:  88
Ref: 6Db4568 ;Qt:  110
Total Produit: 88
Ref: 6Da4568 ;Qt:  88
Ref: 6Db4568 ;Qt:  110
Total Produit: 88
Ref: 6Da4568 ;Qt:  88
Ref: 6Db4568 ;Qt:  110
Total Produit: 88
Ref: 6Da4568 ;Qt:  88
Ref: 6Db4568 ;Qt:  110
Total Produit: 88
Ref: 6Da4568 ;Qt:  88
Ref: 6Db4568 ;Qt:  110
Total Produit: 88
Ref: 6Da4568 ;Qt:  88
Ref: 6Db4568 ;Qt:  110
Total Produit: 88
Ref: 6Da4568 ;Qt:  88
Ref: 6Db4568 ;Qt:  110
Total Produit: 88
Ref: 6Da4568 ;Qt:  88
Ref: 6Db4568 ;Qt:  110
Total Produit: 88
Ref: 6Da4568 ;Qt:  88
Ref: 6Db4568 ;Qt:  110
Total Produit: 88
Ref: 6Da4568 ;Qt:  88
Ref: 6Db4568 ;Qt:  110
Total Produit: 88
Ref: 6Da4568 ;Qt:  88
Ref: 6Db4568 ;Qt:  110
Total Produit: 88
Ref: 6Da4568 ;Qt:  88
Ref: 6Db4568 ;Qt:  110
Total Produit: 88
Ref: 6Da4568 ;Qt:  88
Ref: 6Db4568 ;Qt:  110
Total Produit: 88
Ref: 6Da4568 ;Qt:  88
Ref: 6Db4568 ;Qt:  110
Total Produit: 88
Ref: 6Da4568 ;Qt:  88
Ref: 6Db4568 ;Qt:  110
Total Produit: 88
Ref: 6Da4568 ;Qt:  88
Ref: 6Db4568 ;Qt:  110
Total Produit: 88
Ref: 6Da4568 ;Qt:  88
Ref: 6Db4568 ;Qt:  110
Total Produit: 88
Ref: 6Da4568 ;Qt:  88
Ref: 6Db4568 ;Qt:  110
Total Produit: 88
Ref: 6Da4568 ;Qt:  88
Ref: 6Db4568 ;Qt:  110
Total Produit: 88
Ref: 6Da4568 ;Qt:  88
Ref: 6Db4568 ;Qt:  110
Total Produit: 88
Ref: 6Da4568 ;Qt:  88
Ref: 6Db4568 ;Qt:  110
Total Produit: 88
Ref: 6Da4568 ;Qt:  88
Ref: 6Db4568 ;Qt:  110
Total Produit: 88
Ref: 6Da4568 ;Qt:  88
Ref: 6Db4568 ;Qt:  110
Total Produit: 88
Ref: 6Da4568 ;Qt:  88
Ref: 6Db4568 ;Qt:  110
Total Produit: 88
Ref: 6Da4568 ;Qt:  88
Ref: 6Db4568 ;Qt:  110
Total Produit: 88
Ref: 6Da4568 ;Qt:  88
Ref: 6Db4568 ;Qt:  110
Total Produit: 88
Ref: 6Da4568 ;Qt:  88
Ref: 6Db4568 ;Qt:  110
Total Produit: 88
Ref: 6Da4568 ;Qt:  88
Ref: 6Db4568 ;Qt:  110
Total Produit: 88
Ref: 6Da4568 ;Qt:  88
Ref: 6Db4568 ;Qt:  110
Total Produit: 88
Ref: 6Da4568 ;Qt:  88
Ref: 6Db4568 ;Qt:  110
Total Produit: 88
Ref: 6Da4568 ;Qt:  88
Ref: 6Db4568 ;Qt:  110
Total Produit: 88
Ref: 6Da4568 ;Qt:  88
Ref: 6Db4568 ;Qt:  110
Total Produit: 88
Ref: 6Da4568 ;Qt:  88
Ref: 6Db4568 ;Qt:  110
Total Produit: 88
Ref: 6Da4568 ;Qt:  88
Ref: 6Db4568 ;Qt:  110
Total Produit: 88
Ref: 6Da4568 ;Qt:  88
Ref: 6Db4568 ;Qt:  110
Total Produit: 88
Ref: 6Da4568 ;Qt:  88
Ref: 6Db4568 ;Qt:  110
Total Produit: 88
Ref: 6Da4568 ;Qt:  88
Ref: 6Db4568 ;Qt:  110
Total Produit: 88
Ref: 6Da4568 ;Qt:  88
Ref: 6Db4568 ;Qt:  110
Total Produit: 88
Ref: 6Da4568 ;Qt:  88
Ref: 6Db4568 ;Qt:  110
Total Produit: 88
Ref: 6Da4568 ;Qt:  88
Ref: 6Db4568 ;Qt:  110
Total Produit: 88
Ref: 6Da4568 ;Qt:  88
Ref: 6Db4568 ;Qt:  110
Total Produit: 88
Ref: 6Da4568 ;Qt:  88
Ref: 6Db4568 ;Qt:  110
Total Produit: 88
Ref: 6Da4568 ;Qt:  88
Ref: 6Db4568 ;Qt:  110
Total Produit: 88
Ref: 6Da4568 ;Qt:  88
Ref: 6Db4568 ;Qt:  110
Total Produit: 88
Ref: 6Da4568 ;Qt:  88
Ref: 6Db4568 ;Qt:  110
Total Produit: 88
Ref: 6Da4568 ;Qt:  88
Ref: 6Db4568 ;Qt:  110
Total Produit: 88
Ref: 6Da4568 ;Qt:  88
Ref: 6Db4568 ;Qt:  110
Total Produit: 88
Ref: 6Da4568 ;Qt:  88
Ref: 6Db4568 ;Qt:  110
Total Produit: 88
Ref: 6Da4568 ;Qt:  88
Ref: 6Db4568 ;Qt:  110
Total Produit: 88
Ref: 6Da4568 ;Qt:  88
Ref: 6Db4568 ;Qt:  110
Total Produit: 88
Ref: 6Da4568 ;Qt:  88
Ref: 6Db4568 ;Qt:  110
Total Produit: 88
Ref: 6Da4568 ;Qt:  88
Ref: 6Db4568 ;Qt:  110
Total Produit: 88
Ref: 6Da4568 ;Qt:  88
Ref: 6Db4568 ;Qt:  110
Total Produit: 88
Ref: 6Da4568 ;Qt:  88
Ref: 6Db4568 ;Qt:  110
Total Produit: 88
Ref: 6Da4568 ;Qt:  88
Ref: 6Db4568 ;Qt:  110
Total Produit: 88
Ref: 6Da4568 ;Qt:  88
Ref: 6Db4568 ;Qt:  110
Total Produit: 88
Ref: 6Da4568 ;Qt:  88
Ref: 6Db4568 ;Qt:  110
Total Produit: 88
Ref: 6Da4568 ;Qt:  88
Ref: 6Db4568 ;Qt:  110
Total Produit: 88
Ref: 6Da4568 ;Qt:  88
Ref: 6Db4568 ;Qt:  110
Total Produit: 88
Ref: 6Da4568 ;Qt:  88
Ref: 6Db4568 ;Qt:  110
Total Produit: 88
Ref: 6Da4568 ;Qt:  88
Ref: 6Db4568 ;Qt:  110
Total Produit: 88
Ref: 6Da4568 ;Qt:  88
Ref: 6Db4568 ;Qt:  110
Total Produit: 88
Ref: 6Da4568 ;Qt:  88
Ref: 6Db4568 ;Qt:  110
Total Produit: 88
Ref: 6Da4568 ;Qt:  88
Ref: 6Db4568 ;Qt:  110
Total Produit: 88
Ref: 6Da4568 ;Qt:  88
Ref: 6Db4568 ;Qt:  110
Total Produit: 88
Ref: 6Da4568 ;Qt:  88
Ref: 6Db4568 ;Qt:  110
Total Produit: 88
Ref: 6Da4568 ;Qt:  88
Ref: 6Db4568 ;Qt:  110
Total Produit: 88
Ref: 6Da4568 ;Qt:  88
Ref: 6Db4568 ;Qt:  110
Total Produit: 88
Ref: 6Da4568 ;Qt:  88
Ref: 6Db4568 ;Qt:  110
Total Produit: 88
Ref: 6Da4568 ;Qt:  88
Ref: 6Db4568 ;Qt:  110
Total Produit: 88
Ref: 6Da4568 ;Qt:  88
Ref: 6Db4568 ;Qt:  110
Total Produit: 88
Ref: 6Da4568 ;Qt:  88
Ref: 6Db4568 ;Qt:  110
Total Produit: 88
Ref: 6Da4568 ;Qt:  88
Ref: 6Db4568 ;Qt:  110
Total Produit: 88
Ref: 6Da4568 ;Qt:  88
Ref: 6Db4568 ;Qt:  110
Total Produit: 88
Ref: 6Da4568 ;Qt:  88
Ref: 6Db4568 ;Qt:  110
Total Produit: 88
Ref: 6Da4568 ;Qt:  88
Ref: 6Db4568 ;Qt:  110
Total Produit: 88
Ref: 6Da4568 ;Qt:  88
Ref: 6Db4568 ;Qt:  110
Total Produit: 88
Ref: 6Da4568 ;Qt:  88
Ref: 6Db4568 ;Qt:  110
Total Produit: 88
Ref: 6Da4568 ;Qt:  88
Ref: 6Db4568 ;Qt:  110
Total Produit: 88
Ref: 6Da4568 ;Qt:  88
Ref: 6Db4568 ;Qt:  110
Total Produit: 88
Ref: 6Da4568 ;Qt:  88
Ref: 6Db4568 ;Qt:  110
Total Produit: 88
Ref: 6Da4568 ;Qt:  88
Ref: 6Db4568 ;Qt:  110
Total Produit: 88
Ref: 6Da4568 ;Qt:  88
Ref: 6Db4568 ;Qt:  110
Total Produit: 88
Ref: 6Da4568 ;Qt:  88
Ref: 6Db4568 ;Qt:  110
Total Produit: 88
Ref: 6Da4568 ;Qt:  88
Ref: 6Db4568 ;Qt:  110
Total Produit: 88
Ref: 6Da4568 ;Qt:  88
Ref: 6Db4568 ;Qt:  110
Total Produit: 88
Ref: 6Da4568 ;Qt:  88
Ref: 6Db4568 ;Qt:  110
Total Produit: 88
Ref: 6Da4568 ;Qt:  88
Ref: 6Db4568 ;Qt:  110
Total Produit: 88
Ref: 6Da4568 ;Qt:  88
Ref: 6Db4568 ;Qt:  110
Total Produit: 88
Ref: 6Da4568 ;Qt:  88
Ref: 6Db4568 ;Qt:  110
Total Produit: 88
Ref: 6Da4568 ;Qt:  88
Ref: 6Db4568 ;Qt:  110
Total Produit: 88
Ref: 6Da4568 ;Qt:  88
Ref: 6Db4568 ;Qt:  110
Total Produit: 88
Ref: 6Da4568 ;Qt:  88
Ref: 6Db4568 ;Qt:  110
Total Produit: 88
Ref: 6Da4568 ;Qt:  88
Ref: 6Db4568 ;Qt:  110
Total Produit: 88
Ref: 6Da4568 ;Qt:  88
Ref: 6Db4568 ;Qt:  110
Total Produit: 88
Ref: 6Da4568 ;Qt:  88
Ref: 6Db4568 ;Qt:  110
Total Produit: 88
Ref: 6Da4568 ;Qt:  88
Ref: 6Db4568 ;Qt:  110
Total Produit: 88
Ref: 6Da4568 ;Qt:  88
Ref: 6Db4568 ;Qt:  110
Total Produit: 88
Ref: 6Da4568 ;Qt:  88
Ref: 6Db4568 ;Qt:  110
Total Produit: 88
Ref: 6Da4568 ;Qt:  88
Ref: 6Db4568 ;Qt:  110
Total Produit: 88
Ref: 6Da4568 ;Qt:  88
Ref: 6Db4568 ;Qt:  110
Total Produit: 88
Ref: 6Da4568 ;Qt:  88
Ref: 6Db4568 ;Qt:  110
Total Produit: 88
Ref: 6Da4568 ;Qt:  88
Ref: 6Db4568 ;Qt:  110
Total Produit: 88
Ref: 6Da4568 ;Qt:  88
Ref: 6Db4568 ;Qt:  110
Total Produit: 88
Ref: 6Da4568 ;Qt:  88
Ref: 6Db4568 ;Qt:  110
Total Produit: 88
Ref: 6Da4568 ;Qt:  88
Ref: 6Db4568 ;Qt:  110
Total Produit: 88
Ref: 6Da4568 ;Qt:  88
Ref: 6Db4568 ;Qt:  110
Total Produit: 88
Ref: 6Da4568 ;Qt:  88
Ref: 6Db4568 ;Qt:  110
Total Produit: 88
Ref: 6Da4568 ;Qt:  88
Ref: 6Db4568 ;Qt:  110
Total Produit: 88
Ref: 6Da4568 ;Qt:  88
Ref: 6Db4568 ;Qt:  110
Total Produit: 88
Ref: 6Da4568 ;Qt:  88
Ref: 6Db4568 ;Qt:  110
Total Produit: 88
Ref: 6Da4568 ;Qt:  88
Ref: 6Db4568 ;Qt:  110
Total Produit: 88
Ref: 6Da4568 ;Qt:  88
Ref: 6Db4568 ;Qt:  110
Total Produit: 88
Ref: 6Da4568 ;Qt:  88
Ref: 6Db4568 ;Qt:  110
Total Produit: 88
Ref: 6Da4568 ;Qt:  88
Ref: 6Db4568 ;Qt:  110
Total Produit: 88
Ref: 6Da4568 ;Qt:  88
Ref: 6Db4568 ;Qt:  110
Total Produit: 88
Ref: 6Da4568 ;Qt:  88
Ref: 6Db4568 ;Qt:  110
Total Produit: 88
Ref: 6Da4568 ;Qt:  88
Ref: 6Db4568 ;Qt:  110
Total Produit: 88
Ref: 6Da4568 ;Qt:  88
Ref: 6Db4568 ;Qt:  110
Total Produit: 88
Ref: 6Da4568 ;Qt:  88
Ref: 6Db4568 ;Qt:  110
Total Produit: 88
Ref: 6Da4568 ;Qt:  88
Ref: 6Db4568 ;Qt:  110
Total Produit: 88
Ref: 6Da4568 ;Qt:  88
Ref: 6Db4568 ;Qt:  110
Total Produit: 88
Ref: 6Da4568 ;Qt:  88
Ref: 6Db4568 ;Qt:  110
Total Produit: 88
Ref: 6Da4568 ;Qt:  88
Ref: 6Db4568 ;Qt:  110
Total Produit: 88
Ref: 6Da4568 ;Qt:  88
Ref: 6Db4568 ;Qt:  110
Total Produit: 88
Ref: 6Da4568 ;Qt:  88
Ref: 6Db4568 ;Qt:  110
Total Produit: 88
Ref: 6Da4568 ;Qt:  88
Ref: 6Db4568 ;Qt:  110
Total Produit: 88
Ref: 6Da4568 ;Qt:  88
Ref: 6Db4568 ;Qt:  110
Total Produit: 88
Ref: 6Da4568 ;Qt:  88
Ref: 6Db4568 ;Qt:  110
Total Produit: 88
Ref: 6Da4568 ;Qt:  88
Ref: 6Db4568 ;Qt:  110
Total Produit: 88
Ref: 6Da4568 ;Qt:  88
Ref: 6Db4568 ;Qt:  110
Total Produit: 88
Ref: 6Da4568 ;Qt:  88
Ref: 6Db4568 ;Qt:  110
Total Produit: 88
Ref: 6Da4568 ;Qt:  88
Ref: 6Db4568 ;Qt:  110
Total Produit: 88
Ref: 6Da4568 ;Qt:  88
Ref: 6Db4568 ;Qt:  110
Total Produit: 88
Ref: 6Da4568 ;Qt:  88
Ref: 6Db4568 ;Qt:  110
Total Produit: 88
Ref: 6Da4568 ;Qt:  88
Ref: 6Db4568 ;Qt:  110
Total Produit: 88
Ref: 6Da4568 ;Qt:  88
Ref: 6Db4568 ;Qt:  110
Total Produit: 88
Ref: 6Da4568 ;Qt:  88
Ref: 6Db4568 ;Qt:  110
Total Produit: 88
Ref: 6Da4568 ;Qt:  88
Ref: 6Db4568 ;Qt:  110
Total Produit: 88
Ref: 6Da4568 ;Qt:  88
Ref: 6Db4568 ;Qt:  110
Total Produit: 88
Ref: 6Da4568 ;Qt:  88
Ref: 6Db4568 ;Qt:  110
Total Produit: 88
Ref: 6Da4568 ;Qt:  88
Ref: 6Db4568 ;Qt:  110
Total Produit: 88
Ref: 6Da4568 ;Qt:  88
Ref: 6Db4568 ;Qt:  110
Total Produit: 88
Ref: 6Da4568 ;Qt:  88
Ref: 6Db4568 ;Qt:  110
Total Produit: 88
Ref: 6Da4568 ;Qt:  88
Ref: 6Db4568 ;Qt:  110
Total Produit: 88
Ref: 6Da4568 ;Qt:  88
Ref: 6Db4568 ;Qt:  110
Total Produit: 88
Ref: 6Da4568 ;Qt:  88
Ref: 6Db4568 ;Qt:  110
Total Produit: 88
Ref: 6Da4568 ;Qt:  88
Ref: 6Db4568 ;Qt:  110
Total Produit: 88
Ref: 6Da4568 ;Qt:  88
Ref: 6Db4568 ;Qt:  110
Total Produit: 88
Ref: 6Da4568 ;Qt:  88
Ref: 6Db4568 ;Qt:  110
Total Produit: 88
Ref: 6Da4568 ;Qt:  88
Ref: 6Db4568 ;Qt:  110
Total Produit: 88
Ref: 6Da4568 ;Qt:  88
Ref: 6Db4568 ;Qt:  110
Total Produit: 88
Ref: 6Da4568 ;Qt:  88
Ref: 6Db4568 ;Qt:  110
Total Produit: 88
Ref: 6Da4568 ;Qt:  88
Ref: 6Db4568 ;Qt:  110
Total Produit: 88
Ref: 6Da4568 ;Qt:  88
Ref: 6Db4568 ;Qt:  110
Total Produit: 88
Ref: 6Da4568 ;Qt:  88
Ref: 6Db4568 ;Qt:  110
Total Produit: 88
Ref: 6Da4568 ;Qt:  88
Ref: 6Db4568 ;Qt:  110
Total Produit: 88
Ref: 6Da4568 ;Qt:  88
Ref: 6Db4568 ;Qt:  110
Total Produit: 88
Ref: 6Da4568 ;Qt:  88
Ref: 6Db4568 ;Qt:  110
Total Produit: 88
Ref: 6Da4568 ;Qt:  88
Ref: 6Db4568 ;Qt:  110
Total Produit: 88
Ref: 6Da4568 ;Qt:  88
Ref: 6Db4568 ;Qt:  110
Total Produit: 88
Ref: 6Da4568 ;Qt:  88
Ref: 6Db4568 ;Qt:  110
Total Produit: 88
Ref: 6Da4568 ;Qt:  88
Ref: 6Db4568 ;Qt:  110
Total Produit: 88
Ref: 6Da4568 ;Qt:  88
Ref: 6Db4568 ;Qt:  110
Total Produit: 88
Ref: 6Da4568 ;Qt:  88
Ref: 6Db4568 ;Qt:  110
Total Produit: 88
Ref: 6Da4568 ;Qt:  88
Ref: 6Db4568 ;Qt:  110
Total Produit: 88
Ref: 6Da4568 ;Qt:  88
Ref: 6Db4568 ;Qt:  110
Total Produit: 88
Ref: 6Da4568 ;Qt:  88
Ref: 6Db4568 ;Qt:  110
Total Produit: 88
Ref: 6Da4568 ;Qt:  88
Ref: 6Db4568 ;Qt:  110
Total Produit: 88
Ref: 6Da4568 ;Qt:  88
Ref: 6Db4568 ;Qt:  110
Total Produit: 88
Ref: 6Da4568 ;Qt:  88
Ref: 6Db4568 ;Qt:  110
Total Produit: 88
Ref: 6Da4568 ;Qt:  88
Ref: 6Db4568 ;Qt:  110
Total Produit: 88
Ref: 6Da4568 ;Qt:  88
Ref: 6Db4568 ;Qt:  110
Total Produit: 88
Ref: 6Da4568 ;Qt:  88
Ref: 6Db4568 ;Qt:  110
Total Produit: 88
Ref: 6Da4568 ;Qt:  88
Ref: 6Db4568 ;Qt:  110
Total Produit: 88
Ref: 6Da4568 ;Qt:  88
Ref: 6Db4568 ;Qt:  110
Total Produit: 88
Ref: 6Da4568 ;Qt:  88
Ref: 6Db4568 ;Qt:  110
Total Produit: 88
Ref: 6Da4568 ;Qt:  88
Ref: 6Db4568 ;Qt:  110
Total Produit: 88
Ref: 6Da4568 ;Qt:  88
Ref: 6Db4568 ;Qt:  110
Total Produit: 88
Ref: 6Da4568 ;Qt:  88
Ref: 6Db4568 ;Qt:  110
Total Produit: 88
Ref: 6Da4568 ;Qt:  88
Ref: 6Db4568 ;Qt:  110
Total Produit: 88
Ref: 6Da4568 ;Qt:  88
Ref: 6Db4568 ;Qt:  110
Total Produit: 88
Ref: 6Da4568 ;Qt:  88
Ref: 6Db4568 ;Qt:  110
Total Produit: 88
Ref: 6Da4568 ;Qt:  88
Ref: 6Db4568 ;Qt:  110
Total Produit: 88
Ref: 6Da4568 ;Qt:  88
Ref: 6Db4568 ;Qt:  110
Total Produit: 88
Ref: 6Da4568 ;Qt:  88
Ref: 6Db4568 ;Qt:  110
Total Produit: 88
Ref: 6Da4568 ;Qt:  88
Ref: 6Db4568 ;Qt:  110
Total Produit: 88
Ref: 6Da4568 ;Qt:  88
Ref: 6Db4568 ;Qt:  110
Total Produit: 88
Ref: 6Da4568 ;Qt:  88
Ref: 6Db4568 ;Qt:  110
Total Produit: 88
Ref: 6Da4568 ;Qt:  88
Ref: 6Db4568 ;Qt:  110
Total Produit: 88
Ref: 6Da4568 ;Qt:  88
Ref: 6Db4568 ;Qt:  110
Total Produit: 88
Ref: 6Da4568 ;Qt:  88
Ref: 6Db4568 ;Qt:  110
Total Produit: 88
Ref: 6Da4568 ;Qt:  88
Ref: 6Db4568 ;Qt:  110
Total Produit: 88
Ref: 6Da4568 ;Qt:  88
Ref: 6Db4568 ;Qt:  110
Total Produit: 88
Ref: 6Da4568 ;Qt:  88
Ref: 6Db4568 ;Qt:  110
Total Produit: 88
Ref: 6Da4568 ;Qt:  88
Ref: 6Db4568 ;Qt:  110
Total Produit: 88
Ref: 6Da4568 ;Qt:  88
Ref: 6Db4568 ;Qt:  110
Total Produit: 88
Ref: 6Da4568 ;Qt:  88
Ref: 6Db4568 ;Qt:  110
Total Produit: 88
Ref: 6Da4568 ;Qt:  88
Ref: 6Db4568 ;Qt:  110
Total Produit: 88
Ref: 6Da4568 ;Qt:  88
Ref: 6Db4568 ;Qt:  110
Total Produit: 88
Ref: 6Da4568 ;Qt:  88
Ref: 6Db4568 ;Qt:  110
Total Produit: 88
Ref: 6Da4568 ;Qt:  88
Ref: 6Db4568 ;Qt:  110
Total Produit: 88
Ref: 6Da4568 ;Qt:  88
Ref: 6Db4568 ;Qt:  110
Total Produit: 88
Ref: 6Da4568 ;Qt:  88
Ref: 6Db4568 ;Qt:  110
Total Produit: 88
Ref: 6Da4568 ;Qt:  88
Ref: 6Db4568 ;Qt:  110
Total Produit: 88
Ref: 6Da4568 ;Qt:  88
Ref: 6Db4568 ;Qt:  110
Total Produit: 88
Ref: 6Da4568 ;Qt:  88
Ref: 6Db4568 ;Qt:  110
Total Produit: 88
Ref: 6Da4568 ;Qt:  88
Ref: 6Db4568 ;Qt:  110
Total Produit: 88
Ref: 6Da4568 ;Qt:  88
Ref: 6Db4568 ;Qt:  110
Total Produit: 88
Ref: 6Da4568 ;Qt:  88
Ref: 6Db4568 ;Qt:  110
Total Produit: 88
Ref: 6Da4568 ;Qt:  88
Ref: 6Db4568 ;Qt:  110
Total Produit: 88
Ref: 6Da4568 ;Qt:  88
Ref: 6Db4568 ;Qt:  110
Total Produit: 88
Ref: 6Da4568 ;Qt:  88
Ref: 6Db4568 ;Qt:  110
Total Produit: 88
Ref: 6Da4568 ;Qt:  88
Ref: 6Db4568 ;Qt:  110
Total Produit: 88
Ref: 6Da4568 ;Qt:  88
Ref: 6Db4568 ;Qt:  110
Total Produit: 88
Ref: 6Da4568 ;Qt:  88
Ref: 6Db4568 ;Qt:  110
Total Produit: 88
Ref: 6Da4568 ;Qt:  88
Ref: 6Db4568 ;Qt:  110
Total Produit: 88
Ref: 6Da4568 ;Qt:  88
Ref: 6Db4568 ;Qt:  110
Total Produit: 88
Ref: 6Da4568 ;Qt:  88
Ref: 6Db4568 ;Qt:  110
Total Produit: 88
Ref: 6Da4568 ;Qt:  88
Ref: 6Db4568 ;Qt:  110
Total Produit: 88
Ref: 6Da4568 ;Qt:  88
Ref: 6Db4568 ;Qt:  110
Total Produit: 88
Ref: 6Da4568 ;Qt:  88
Ref: 6Db4568 ;Qt:  110
Total Produit: 88
Ref: 6Da4568 ;Qt:  88
Ref: 6Db4568 ;Qt:  110
Total Produit: 88
Ref: 6Da4568 ;Qt:  88
Ref: 6Db4568 ;Qt:  110
Total Produit: 88
Ref: 6Da4568 ;Qt:  88
Ref: 6Db4568 ;Qt:  110
Total Produit: 88
Ref: 6Da4568 ;Qt:  88
Ref: 6Db4568 ;Qt:  110
Total Produit: 88
Ref: 6Da4568 ;Qt:  88
Ref: 6Db4568 ;Qt:  110
Total Produit: 88
Ref: 6Da4568 ;Qt:  88
Ref: 6Db4568 ;Qt:  110
Total Produit: 88
Ref: 6Da4568 ;Qt:  88
Ref: 6Db4568 ;Qt:  110
Total Produit: 88
Ref: 6Da4568 ;Qt:  88
Ref: 6Db4568 ;Qt:  110
Total Produit: 88
Ref: 6Da4568 ;Qt:  88
Ref: 6Db4568 ;Qt:  110
Total Produit: 88
Ref: 6Da4568 ;Qt:  88
Ref: 6Db4568 ;Qt:  110
Total Produit: 88
Ref: 6Da4568 ;Qt:  88
Ref: 6Db4568 ;Qt:  110
Total Produit: 88
Ref: 6Da4568 ;Qt:  88
Ref: 6Db4568 ;Qt:  110
Total Produit: 88
Ref: 6Da4568 ;Qt:  88
Ref: 6Db4568 ;Qt:  110
Total Produit: 88
Ref: 6Da4568 ;Qt:  88
Ref: 6Db4568 ;Qt:  110
Total Produit: 88
Ref: 6Da4568 ;Qt:  88
Ref: 6Db4568 ;Qt:  110
Total Produit: 88
Ref: 6Da4568 ;Qt:  88
Ref: 6Db4568 ;Qt:  110
Total Produit: 88
Ref: 6Da4568 ;Qt:  88
Ref: 6Db4568 ;Qt:  110
Total Produit: 88
Ref: 6Da4568 ;Qt:  88
Ref: 6Db4568 ;Qt:  110
Total Produit: 88
Ref: 6Da4568 ;Qt:  88
Ref: 6Db4568 ;Qt:  110
Total Produit: 88
Ref: 6Da4568 ;Qt:  88
Ref: 6Db4568 ;Qt:  110
Total Produit: 88
Ref: 6Da4568 ;Qt:  88
Ref: 6Db4568 ;Qt:  110
Total Produit: 88
Ref: 6Da4568 ;Qt:  88
Ref: 6Db4568 ;Qt:  110
Total Produit: 88
Ref: 6Da4568 ;Qt:  88
Ref: 6Db4568 ;Qt:  110
Total Produit: 88
Ref: 6Da4568 ;Qt:  88
Ref: 6Db4568 ;Qt:  110
Total Produit: 88
Ref: 6Da4568 ;Qt:  88
Ref: 6Db4568 ;Qt:  110
Total Produit: 88
Ref: 6Da4568 ;Qt:  88
Ref: 6Db4568 ;Qt:  110
Total Produit: 88
Ref: 6Da4568 ;Qt:  88
Ref: 6Db4568 ;Qt:  110
Total Produit: 88
Ref: 6Da4568 ;Qt:  88
Ref: 6Db4568 ;Qt:  110
Total Produit: 88
Ref: 6Da4568 ;Qt:  88
Ref: 6Db4568 ;Qt:  110
Total Produit: 88
Ref: 6Da4568 ;Qt:  88
Ref: 6Db4568 ;Qt:  110
Total Produit: 88
Ref: 6Da4568 ;Qt:  88
Ref: 6Db4568 ;Qt:  110
Total Produit: 88
Ref: 6Da4568 ;Qt:  88
Ref: 6Db4568 ;Qt:  110
Total Produit: 88
Ref: 6Da4568 ;Qt:  88
Ref: 6Db4568 ;Qt:  110
Total Produit: 88
Ref: 6Da4568 ;Qt:  88
Ref: 6Db4568 ;Qt:  110
Total Produit: 88
Ref: 6Da4568 ;Qt:  88
Ref: 6Db4568 ;Qt:  110
Total Produit: 88
Ref: 6Da4568 ;Qt:  88
Ref: 6Db4568 ;Qt:  110
Total Produit: 88
Ref: 6Da4568 ;Qt:  88
Ref: 6Db4568 ;Qt:  110
Total Produit: 88
Ref: 6Da4568 ;Qt:  88
Ref: 6Db4568 ;Qt:  110
Total Produit: 88
Ref: 6Da4568 ;Qt:  88
Ref: 6Db4568 ;Qt:  110
Total Produit: 88
Ref: 6Da4568 ;Qt:  88
Ref: 6Db4568 ;Qt:  110
Total Produit: 88
Ref: 6Da4568 ;Qt:  88
Ref: 6Db4568 ;Qt:  110
Total Produit: 88
Ref: 6Da4568 ;Qt:  88
Ref: 6Db4568 ;Qt:  110
Total Produit: 88
Ref: 6Da4568 ;Qt:  88
Ref: 6Db4568 ;Qt:  110
Total Produit: 88
Ref: 6Da4568 ;Qt:  88
Ref: 6Db4568 ;Qt:  110
Total Produit: 88
Ref: 6Da4568 ;Qt:  88
Ref: 6Db4568 ;Qt:  110
Total Produit: 88
Ref: 6Da4568 ;Qt:  88
Ref: 6Db4568 ;Qt:  110
Total Produit: 88
Ref: 6Da4568 ;Qt:  88
Ref: 6Db4568 ;Qt:  110
Total Produit: 88
Ref: 6Da4568 ;Qt:  88
Ref: 6Db4568 ;Qt:  110
Total Produit: 88
Ref: 6Da4568 ;Qt:  88
Ref: 6Db4568 ;Qt:  110
Total Produit: 88
Ref: 6Da4568 ;Qt:  88
Ref: 6Db4568 ;Qt:  110
Total Produit: 88
Ref: 6Da4568 ;Qt:  88
Ref: 6Db4568 ;Qt:  110
Total Produit: 88
Ref: 6Da4568 ;Qt:  88
Ref: 6Db4568 ;Qt:  110
Total Produit: 88
Ref: 6Da4568 ;Qt:  88
Ref: 6Db4568 ;Qt:  110
Total Produit: 88
Ref: 6Da4568 ;Qt:  88
Ref: 6Db4568 ;Qt:  110
Total Produit: 88
Ref: 6Da4568 ;Qt:  88
Ref: 6Db4568 ;Qt:  110
Total Produit: 88
Ref: 6Da4568 ;Qt:  88
Ref: 6Db4568 ;Qt:  110
Total Produit: 88
Ref: 6Da4568 ;Qt:  88
Ref: 6Db4568 ;Qt:  110
Total Produit: 88
Ref: 6Da4568 ;Qt:  88
Ref: 6Db4568 ;Qt:  110
Total Produit: 88
Ref: 6Da4568 ;Qt:  88
Ref: 6Db4568 ;Qt:  110
Total Produit: 88
Ref: 6Da4568 ;Qt:  88
Ref: 6Db4568 ;Qt:  110
Total Produit: 88
Ref: 6Da4568 ;Qt:  88
Ref: 6Db4568 ;Qt:  110
Total Produit: 88
Ref: 6Da4568 ;Qt:  88
Ref: 6Db4568 ;Qt:  110
Total Produit: 88
Ref: 6Da4568 ;Qt:  88
Ref: 6Db4568 ;Qt:  110
Total Produit: 88
Ref: 6Da4568 ;Qt:  88
Ref: 6Db4568 ;Qt:  110
Total Produit: 88
Ref: 6Da4568 ;Qt:  88
Ref: 6Db4568 ;Qt:  110
Total Produit: 88
Ref: 6Da4568 ;Qt:  88
Ref: 6Db4568 ;Qt:  110
Total Produit: 88
Ref: 6Da4568 ;Qt:  88
Ref: 6Db4568 ;Qt:  110
Total Produit: 88
Ref: 6Da4568 ;Qt:  88
Ref: 6Db4568 ;Qt:  110
Total Produit: 88
Ref: 6Da4568 ;Qt:  88
Ref: 6Db4568 ;Qt:  110
Total Produit: 88
Ref: 6Da4568 ;Qt:  88
Ref: 6Db4568 ;Qt:  110
Total Produit: 88
Ref: 6Da4568 ;Qt:  88
Ref: 6Db4568 ;Qt:  110
Total Produit: 88
Ref: 6Da4568 ;Qt:  88
Ref: 6Db4568 ;Qt:  110
Total Produit: 88
Ref: 6Da4568 ;Qt:  88
Ref: 6Db4568 ;Qt:  110
Total Produit: 88
Ref: 6Da4568 ;Qt:  88
Ref: 6Db4568 ;Qt:  110
Total Produit: 88
Ref: 6Da4568 ;Qt:  88
Ref: 6Db4568 ;Qt:  110
Total Produit: 88
Ref: 6Da4568 ;Qt:  88
Ref: 6Db4568 ;Qt:  110
Total Produit: 88
Ref: 6Da4568 ;Qt:  88
Ref: 6Db4568 ;Qt:  110
Total Produit: 88
Ref: 6Da4568 ;Qt:  88
Ref: 6Db4568 ;Qt:  110
Total Produit: 88
Ref: 6Da4568 ;Qt:  88
Ref: 6Db4568 ;Qt:  110
Total Produit: 88
Ref: 6Da4568 ;Qt:  88
Ref: 6Db4568 ;Qt:  110
Total Produit: 88
Ref: 6Da4568 ;Qt:  88
Ref: 6Db4568 ;Qt:  110
Total Produit: 88
Ref: 6Da4568 ;Qt:  88
Ref: 6Db4568 ;Qt:  110
Total Produit: 88
Ref: 6Da4568 ;Qt:  88
Ref: 6Db4568 ;Qt:  110
Total Produit: 88
Ref: 6Da4568 ;Qt:  88
Ref: 6Db4568 ;Qt:  110
Total Produit: 88
Ref: 6Da4568 ;Qt:  88
Ref: 6Db4568 ;Qt:  110
Total Produit: 88
Ref: 6Da4568 ;Qt:  88
Ref: 6Db4568 ;Qt:  110
Total Produit: 88
Ref: 6Da4568 ;Qt:  88
Ref: 6Db4568 ;Qt:  110
Total Produit: 88
Ref: 6Da4568 ;Qt:  88
Ref: 6Db4568 ;Qt:  110
Total Produit: 88
Ref: 6Da4568 ;Qt:  88
Ref: 6Db4568 ;Qt:  110
Total Produit: 88
Ref: 6Da4568 ;Qt:  88
Ref: 6Db4568 ;Qt:  110
Total Produit: 88
Ref: 6Da4568 ;Qt:  88
Ref: 6Db4568 ;Qt:  110
Total Produit: 88
Ref: 6Da4568 ;Qt:  88
Ref: 6Db4568 ;Qt:  110
Total Produit: 88
Ref: 6Da4568 ;Qt:  88
Ref: 6Db4568 ;Qt:  110
Total Produit: 88
Ref: 6Da4568 ;Qt:  88
Ref: 6Db4568 ;Qt:  110
Total Produit: 88
Ref: 6Da4568 ;Qt:  88
Ref: 6Db4568 ;Qt:  110
Total Produit: 88
Ref: 6Da4568 ;Qt:  88
Ref: 6Db4568 ;Qt:  110
Total Produit: 88
Ref: 6Da4568 ;Qt:  88
Ref: 6Db4568 ;Qt:  110
Total Produit: 88
Ref: 6Da4568 ;Qt:  88
Ref: 6Db4568 ;Qt:  110
Total Produit: 88
Ref: 6Da4568 ;Qt:  88
Ref: 6Db4568 ;Qt:  110
Total Produit: 88
Ref: 6Da4568 ;Qt:  88
Ref: 6Db4568 ;Qt:  110
Total Produit: 88
Ref: 6Da4568 ;Qt:  88
Ref: 6Db4568 ;Qt:  110
Total Produit: 88
Ref: 6Da4568 ;Qt:  88
Ref: 6Db4568 ;Qt:  110
Total Produit: 88
Ref: 6Da4568 ;Qt:  88
Ref: 6Db4568 ;Qt:  110
Total Produit: 88
Ref: 6Da4568 ;Qt:  88
Ref: 6Db4568 ;Qt:  110
Total Produit: 88
Ref: 6Da4568 ;Qt:  88
Ref: 6Db4568 ;Qt:  110
Total Produit: 88
Ref: 6Da4568 ;Qt:  88
Ref: 6Db4568 ;Qt:  110
Total Produit: 88
Ref: 6Da4568 ;Qt:  88
Ref: 6Db4568 ;Qt:  110
Total Produit: 88
Ref: 6Da4568 ;Qt:  88
Ref: 6Db4568 ;Qt:  110
Total Produit: 88
Ref: 6Da4568 ;Qt:  88
Ref: 6Db4568 ;Qt:  110
Total Produit: 88
Ref: 6Da4568 ;Qt:  88
Ref: 6Db4568 ;Qt:  110
Total Produit: 88
Ref: 6Da4568 ;Qt:  88
Ref: 6Db4568 ;Qt:  110
Total Produit: 88
Ref: 6Da4568 ;Qt:  88
Ref: 6Db4568 ;Qt:  110
Total Produit: 88
Ref: 6Da4568 ;Qt:  88
Ref: 6Db4568 ;Qt:  110
Total Produit: 88
Ref: 6Da4568 ;Qt:  88
Ref: 6Db4568 ;Qt:  110
Total Produit: 88
Ref: 6Da4568 ;Qt:  88
Ref: 6Db4568 ;Qt:  110
Total Produit: 88
Ref: 6Da4568 ;Qt:  88
Ref: 6Db4568 ;Qt:  110
Total Produit: 88
Ref: 6Da4568 ;Qt:  88
Ref: 6Db4568 ;Qt:  110
Total Produit: 88
Ref: 6Da4568 ;Qt:  88
Ref: 6Db4568 ;Qt:  110
Total Produit: 88
Ref: 6Da4568 ;Qt:  88
Ref: 6Db4568 ;Qt:  110
Total Produit: 88
Ref: 6Da4568 ;Qt:  88
Ref: 6Db4568 ;Qt:  110
Total Produit: 88
Ref: 6Da4568 ;Qt:  88
Ref: 6Db4568 ;Qt:  110
Total Produit: 88
Ref: 6Da4568 ;Qt:  88
Ref: 6Db4568 ;Qt:  110
Total Produit: 88
Ref: 6Da4568 ;Qt:  88
Ref: 6Db4568 ;Qt:  110
Total Produit: 88
Ref: 6Da4568 ;Qt:  88
Ref: 6Db4568 ;Qt:  110
Total Produit: 88
Ref: 6Da4568 ;Qt:  88
Ref: 6Db4568 ;Qt:  110
Total Produit: 88
Ref: 6Da4568 ;Qt:  88
Ref: 6Db4568 ;Qt:  110
Total Produit: 88
Ref: 6Da4568 ;Qt:  88
Ref: 6Db4568 ;Qt:  110
Total Produit: 88
Ref: 6Da4568 ;Qt:  88
Ref: 6Db4568 ;Qt:  110
Total Produit: 88
Ref: 6Da4568 ;Qt:  88
Ref: 6Db4568 ;Qt:  110
Total Produit: 88
Ref: 6Da4568 ;Qt:  88
Ref: 6Db4568 ;Qt:  110
Total Produit: 88
Ref: 6Da4568 ;Qt:  88
Ref: 6Db4568 ;Qt:  110
Total Produit: 88
Ref: 6Da4568 ;Qt:  88
Ref: 6Db4568 ;Qt:  110
Total Produit: 88
Ref: 6Da4568 ;Qt:  88
Ref: 6Db4568 ;Qt:  110
Total Produit: 88
Ref: 6Da4568 ;Qt:  88
Ref: 6Db4568 ;Qt:  110
Total Produit: 88
Ref: 6Da4568 ;Qt:  88
Ref: 6Db4568 ;Qt:  110
Total Produit: 88
Ref: 6Da4568 ;Qt:  88
Ref: 6Db4568 ;Qt:  110
Total Produit: 88
Ref: 6Da4568 ;Qt:  88
Ref: 6Db4568 ;Qt:  110
Total Produit: 88
Ref: 6Da4568 ;Qt:  88
Ref: 6Db4568 ;Qt:  110
Total Produit: 88
Ref: 6Da4568 ;Qt:  88
Ref: 6Db4568 ;Qt:  110
Total Produit: 88
Ref: 6Da4568 ;Qt:  88
Ref: 6Db4568 ;Qt:  110
Total Produit: 88
Ref: 6Da4568 ;Qt:  88
Ref: 6Db4568 ;Qt:  110
Total Produit: 88
Ref: 6Da4568 ;Qt:  88
Ref: 6Db4568 ;Qt:  110
Total Produit: 88
Ref: 6Da4568 ;Qt:  88
Ref: 6Db4568 ;Qt:  110
Total Produit: 88
Ref: 6Da4568 ;Qt:  88
Ref: 6Db4568 ;Qt:  110
Total Produit: 88
Ref: 6Da4568 ;Qt:  88
Ref: 6Db4568 ;Qt:  110
Total Produit: 88
Ref: 6Da4568 ;Qt:  88
Ref: 6Db4568 ;Qt:  110
Total Produit: 88
Ref: 6Da4568 ;Qt:  88
Ref: 6Db4568 ;Qt:  110
Total Produit: 88
Ref: 6Da4568 ;Qt:  88
Ref: 6Db4568 ;Qt:  110
Total Produit: 88
Ref: 6Da4568 ;Qt:  88
Ref: 6Db4568 ;Qt:  110
Total Produit: 88
Ref: 6Da4568 ;Qt:  88
Ref: 6Db4568 ;Qt:  110
Total Produit: 88
Ref: 6Da4568 ;Qt:  88
Ref: 6Db4568 ;Qt:  110
Total Produit: 88
Ref: 6Da4568 ;Qt:  88
Ref: 6Db4568 ;Qt:  110
Total Produit: 88
Ref: 6Da4568 ;Qt:  88
Ref: 6Db4568 ;Qt:  110
Total Produit: 88
Ref: 6Da4568 ;Qt:  88
Ref: 6Db4568 ;Qt:  110
Total Produit: 88
Ref: 6Da4568 ;Qt:  88
Ref: 6Db4568 ;Qt:  110
Total Produit: 88
Ref: 6Da4568 ;Qt:  88
Ref: 6Db4568 ;Qt:  110
Total Produit: 88
Ref: 6Da4568 ;Qt:  88
Ref: 6Db4568 ;Qt:  110
Total Produit: 88
Ref: 6Da4568 ;Qt:  88
Ref: 6Db4568 ;Qt:  110
Total Produit: 88
Ref: 6Da4568 ;Qt:  88
Ref: 6Db4568 ;Qt:  110
Total Produit: 88
Ref: 6Da4568 ;Qt:  88
Ref: 6Db4568 ;Qt:  110
Total Produit: 88
Ref: 6Da4568 ;Qt:  88
Ref: 6Db4568 ;Qt:  110
Total Produit: 88
Ref: 6Da4568 ;Qt:  88
Ref: 6Db4568 ;Qt:  110
Total Produit: 88
Ref: 6Da4568 ;Qt:  88
Ref: 6Db4568 ;Qt:  110
Total Produit: 88
Ref: 6Da4568 ;Qt:  88
Ref: 6Db4568 ;Qt:  110
Total Produit: 88
Ref: 6Da4568 ;Qt:  88
Ref: 6Db4568 ;Qt:  110
Total Produit: 88
Ref: 6Da4568 ;Qt:  88
Ref: 6Db4568 ;Qt:  110
Total Produit: 88
Ref: 6Da4568 ;Qt:  88
Ref: 6Db4568 ;Qt:  110
Total Produit: 88
Ref: 6Da4568 ;Qt:  88
Ref: 6Db4568 ;Qt:  110
Total Produit: 88
Ref: 6Da4568 ;Qt:  88
Ref: 6Db4568 ;Qt:  110
Total Produit: 88
Ref: 6Da4568 ;Qt:  88
Ref: 6Db4568 ;Qt:  110
Total Produit: 88
Ref: 6Da4568 ;Qt:  88
Ref: 6Db4568 ;Qt:  110
Total Produit: 88
Ref: 6Da4568 ;Qt:  88
Ref: 6Db4568 ;Qt:  110
Total Produit: 88
Ref: 6Da4568 ;Qt:  88
Ref: 6Db4568 ;Qt:  110
Total Produit: 88
Ref: 6Da4568 ;Qt:  88
Ref: 6Db4568 ;Qt:  110
Total Produit: 88
Ref: 6Da4568 ;Qt:  88
Ref: 6Db4568 ;Qt:  110
Total Produit: 88
Ref: 6Da4568 ;Qt:  88
Ref: 6Db4568 ;Qt:  110
Total Produit: 88
Ref: 6Da4568 ;Qt:  88
Ref: 6Db4568 ;Qt:  110
Total Produit: 88
Ref: 6Da4568 ;Qt:  88
Ref: 6Db4568 ;Qt:  110
Total Produit: 88
Ref: 6Da4568 ;Qt:  88
Ref: 6Db4568 ;Qt:  110
Total Produit: 88
Ref: 6Da4568 ;Qt:  88
Ref: 6Db4568 ;Qt:  110
Total Produit: 88
Ref: 6Da4568 ;Qt:  88
Ref: 6Db4568 ;Qt:  110
Total Produit: 88
Ref: 6Da4568 ;Qt:  88
Ref: 6Db4568 ;Qt:  110
Total Produit: 88
Ref: 6Da4568 ;Qt:  88
Ref: 6Db4568 ;Qt:  110
Total Produit: 88
Ref: 6Da4568 ;Qt:  88
Ref: 6Db4568 ;Qt:  110
Total Produit: 88
Ref: 6Da4568 ;Qt:  88
Ref: 6Db4568 ;Qt:  110
Total Produit: 88
Ref: 6Da4568 ;Qt:  88
Ref: 6Db4568 ;Qt:  110
Total Produit: 88
Ref: 6Da4568 ;Qt:  88
Ref: 6Db4568 ;Qt:  110
Total Produit: 88
Ref: 6Da4568 ;Qt:  88
Ref: 6Db4568 ;Qt:  110
Total Produit: 88
Ref: 6Da4568 ;Qt:  88
Ref: 6Db4568 ;Qt:  110
Total Produit: 88
Ref: 6Da4568 ;Qt:  88
Ref: 6Db4568 ;Qt:  110
Total Produit: 88
Ref: 6Da4568 ;Qt:  88
Ref: 6Db4568 ;Qt:  110
Total Produit: 88
Ref: 6Da4568 ;Qt:  88
Ref: 6Db4568 ;Qt:  110
Total Produit: 88
Ref: 6Da4568 ;Qt:  88
Ref: 6Db4568 ;Qt:  110
Total Produit: 88
Ref: 6Da4568 ;Qt:  88
Ref: 6Db4568 ;Qt:  110
Total Produit: 88
Ref: 6Da4568 ;Qt:  88
Ref: 6Db4568 ;Qt:  110
Total Produit: 88
Ref: 6Da4568 ;Qt:  88
Ref: 6Db4568 ;Qt:  110
Total Produit: 88
Ref: 6Da4568 ;Qt:  88
Ref: 6Db4568 ;Qt:  110
Total Produit: 88
Ref: 6Da4568 ;Qt:  88
Ref: 6Db4568 ;Qt:  110
Total Produit: 88
Ref: 6Da4568 ;Qt:  88
Ref: 6Db4568 ;Qt:  110
Total Produit: 88
Ref: 6Da4568 ;Qt:  88
Ref: 6Db4568 ;Qt:  110
Total Produit: 88
Ref: 6Da4568 ;Qt:  88
Ref: 6Db4568 ;Qt:  110
Total Produit: 88
Ref: 6Da4568 ;Qt:  88
Ref: 6Db4568 ;Qt:  110
Total Produit: 88
Ref: 6Da4568 ;Qt:  88
Ref: 6Db4568 ;Qt:  110
Total Produit: 88
Ref: 6Da4568 ;Qt:  88
Ref: 6Db4568 ;Qt:  110
Total Produit: 88
Ref: 6Da4568 ;Qt:  88
Ref: 6Db4568 ;Qt:  110
Total Produit: 88
Ref: 6Da4568 ;Qt:  88
Ref: 6Db4568 ;Qt:  110
Total Produit: 88
Ref: 6Da4568 ;Qt:  88
Ref: 6Db4568 ;Qt:  110
Total Produit: 88
Ref: 6Da4568 ;Qt:  88
Ref: 6Db4568 ;Qt:  110
Total Produit: 88
Ref: 6Da4568 ;Qt:  88
Ref: 6Db4568 ;Qt:  110
Total Produit: 88
Ref: 6Da4568 ;Qt:  88
Ref: 6Db4568 ;Qt:  110
Total Produit: 88
Ref: 6Da4568 ;Qt:  88
Ref: 6Db4568 ;Qt:  110
Total Produit: 88
Ref: 6Da4568 ;Qt:  88
Ref: 6Db4568 ;Qt:  110
Total Produit: 88
Ref: 6Da4568 ;Qt:  88
Ref: 6Db4568 ;Qt:  110
Total Produit: 88
Ref: 6Da4568 ;Qt:  88
Ref: 6Db4568 ;Qt:  110
Total Produit: 88
Ref: 6Da4568 ;Qt:  88
Ref: 6Db4568 ;Qt:  110
Total Produit: 88
Ref: 6Da4568 ;Qt:  88
Ref: 6Db4568 ;Qt:  110
Total Produit: 88
Ref: 6Da4568 ;Qt:  88
Ref: 6Db4568 ;Qt:  110
Total Produit: 88
Ref: 6Da4568 ;Qt:  88
Ref: 6Db4568 ;Qt:  110
Total Produit: 88
Ref: 6Da4568 ;Qt:  88
Ref: 6Db4568 ;Qt:  110
Total Produit: 88
Ref: 6Da4568 ;Qt:  88
Ref: 6Db4568 ;Qt:  110
Total Produit: 88
Ref: 6Da4568 ;Qt:  88
Ref: 6Db4568 ;Qt:  110
Total Produit: 88
Ref: 6Da4568 ;Qt:  88
Ref: 6Db4568 ;Qt:  110
Total Produit: 88
Ref: 6Da4568 ;Qt:  88
Ref: 6Db4568 ;Qt:  110
Total Produit: 88
Ref: 6Da4568 ;Qt:  88
Ref: 6Db4568 ;Qt:  110
Total Produit: 88
Ref: 6Da4568 ;Qt:  88
Ref: 6Db4568 ;Qt:  110
Total Produit: 88
Ref: 6Da4568 ;Qt:  88
Ref: 6Db4568 ;Qt:  110
Total Produit: 88
Ref: 6Da4568 ;Qt:  88
Ref: 6Db4568 ;Qt:  110
Total Produit: 88
Ref: 6Da4568 ;Qt:  88
Ref: 6Db4568 ;Qt:  110
Total Produit: 88
Ref: 6Da4568 ;Qt:  88
Ref: 6Db4568 ;Qt:  110
Total Produit: 88
Ref: 6Da4568 ;Qt:  88
Ref: 6Db4568 ;Qt:  110
Total Produit: 88
Ref: 6Da4568 ;Qt:  88
Ref: 6Db4568 ;Qt:  110
Total Produit: 88
Ref: 6Da4568 ;Qt:  88
Ref: 6Db4568 ;Qt:  110
Total Produit: 88
Ref: 6Da4568 ;Qt:  88
Ref: 6Db4568 ;Qt:  110
Total Produit: 88
Ref: 6Da4568 ;Qt:  88
Ref: 6Db4568 ;Qt:  110
Total Produit: 88
Ref: 6Da4568 ;Qt:  88
Ref: 6Db4568 ;Qt:  110
Total Produit: 88
Ref: 6Da4568 ;Qt:  88
Ref: 6Db4568 ;Qt:  110
Total Produit: 88
Ref: 6Da4568 ;Qt:  88
Ref: 6Db4568 ;Qt:  110
Total Produit: 88
Ref: 6Da4568 ;Qt:  88
Ref: 6Db4568 ;Qt:  110
Total Produit: 88
Ref: 6Da4568 ;Qt:  88
Ref: 6Db4568 ;Qt:  110
Total Produit: 88
Ref: 6Da4568 ;Qt:  88
Ref: 6Db4568 ;Qt:  110
Total Produit: 88
Ref: 6Da4568 ;Qt:  88
Ref: 6Db4568 ;Qt:  110
Total Produit: 88
Ref: 6Da4568 ;Qt:  88
Ref: 6Db4568 ;Qt:  110
Total Produit: 88
Ref: 6Da4568 ;Qt:  88
Ref: 6Db4568 ;Qt:  110
Total Produit: 88
Ref: 6Da4568 ;Qt:  88
Ref: 6Db4568 ;Qt:  110
Total Produit: 88
Ref: 6Da4568 ;Qt:  88
Ref: 6Db4568 ;Qt:  110
Total Produit: 88
Ref: 6Da4568 ;Qt:  88
Ref: 6Db4568 ;Qt:  110
Total Produit: 88
Ref: 6Da4568 ;Qt:  88
Ref: 6Db4568 ;Qt:  110
Total Produit: 88
Ref: 6Da4568 ;Qt:  88
Ref: 6Db4568 ;Qt:  110
Total Produit: 88
Ref: 6Da4568 ;Qt:  88
Ref: 6Db4568 ;Qt:  110
Total Produit: 88
Ref: 6Da4568 ;Qt:  88
Ref: 6Db4568 ;Qt:  110
Total Produit: 88
Ref: 6Da4568 ;Qt:  88
Ref: 6Db4568 ;Qt:  110
Total Produit: 88
Ref: 6Da4568 ;Qt:  88
Ref: 6Db4568 ;Qt:  110
Total Produit: 88
Ref: 6Da4568 ;Qt:  88
Ref: 6Db4568 ;Qt:  110
Total Produit: 88
Ref: 6Da4568 ;Qt:  88
Ref: 6Db4568 ;Qt:  110
Total Produit: 88
Ref: 6Da4568 ;Qt:  88
Ref: 6Db4568 ;Qt:  110
Total Produit: 88
Ref: 6Da4568 ;Qt:  88
Ref: 6Db4568 ;Qt:  110
Total Produit: 88
Ref: 6Da4568 ;Qt:  88
Ref: 6Db4568 ;Qt:  110
Total Produit: 88
Ref: 6Da4568 ;Qt:  88
Ref: 6Db4568 ;Qt:  110
Total Produit: 88
Ref: 6Da4568 ;Qt:  88
Ref: 6Db4568 ;Qt:  110
Total Produit: 88
Ref: 6Da4568 ;Qt:  88
Ref: 6Db4568 ;Qt:  110
Total Produit: 88
Ref: 6Da4568 ;Qt:  88
Ref: 6Db4568 ;Qt:  110
Total Produit: 88
Ref: 6Da4568 ;Qt:  88
Ref: 6Db4568 ;Qt:  110
Total Produit: 88
Ref: 6Da4568 ;Qt:  88
Ref: 6Db4568 ;Qt:  110
Total Produit: 88
Ref: 6Da4568 ;Qt:  88
Ref: 6Db4568 ;Qt:  110
Total Produit: 88
Ref: 6Da4568 ;Qt:  88
Ref: 6Db4568 ;Qt:  110
Total Produit: 88
Ref: 6Da4568 ;Qt:  88
Ref: 6Db4568 ;Qt:  110
Total Produit: 88
Ref: 6Da4568 ;Qt:  88
Ref: 6Db4568 ;Qt:  110
Total Produit: 88
Ref: 6Da4568 ;Qt:  88
Ref: 6Db4568 ;Qt:  110
Total Produit: 88
Ref: 6Da4568 ;Qt:  88
Ref: 6Db4568 ;Qt:  110
Total Produit: 88
Ref: 6Da4568 ;Qt:  88
Ref: 6Db4568 ;Qt:  110
Total Produit: 88
Ref: 6Da4568 ;Qt:  88
Ref: 6Db4568 ;Qt:  110
Total Produit: 88
Ref: 6Da4568 ;Qt:  88
Ref: 6Db4568 ;Qt:  110
Total Produit: 88
Ref: 6Da4568 ;Qt:  88
Ref: 6Db4568 ;Qt:  110
Total Produit: 88
Ref: 6Da4568 ;Qt:  88
Ref: 6Db4568 ;Qt:  110
Total Produit: 88
Ref: 6Da4568 ;Qt:  88
Ref: 6Db4568 ;Qt:  110
Total Produit: 88
Ref: 6Da4568 ;Qt:  88
Ref: 6Db4568 ;Qt:  110
Total Produit: 88
Ref: 6Da4568 ;Qt:  88
Ref: 6Db4568 ;Qt:  110
Total Produit: 88
Ref: 6Da4568 ;Qt:  88
Ref: 6Db4568 ;Qt:  110
Total Produit: 88
Ref: 6Da4568 ;Qt:  88
Ref: 6Db4568 ;Qt:  110
Total Produit: 88
Ref: 6Da4568 ;Qt:  88
Ref: 6Db4568 ;Qt:  110
Total Produit: 88
Ref: 6Da4568 ;Qt:  88
Ref: 6Db4568 ;Qt:  110
Total Produit: 88
Ref: 6Da4568 ;Qt:  88
Ref: 6Db4568 ;Qt:  110
Total Produit: 88
Ref: 6Da4568 ;Qt:  88
Ref: 6Db4568 ;Qt:  110
Total Produit: 88
Ref: 6Da4568 ;Qt:  88
Ref: 6Db4568 ;Qt:  110
Total Produit: 88
Ref: 6Da4568 ;Qt:  88
Ref: 6Db4568 ;Qt:  110
Total Produit: 88
Ref: 6Da4568 ;Qt:  88
Ref: 6Db4568 ;Qt:  110
Total Produit: 88
Ref: 6Da4568 ;Qt:  88
Ref: 6Db4568 ;Qt:  110
Total Produit: 88
Ref: 6Da4568 ;Qt:  88
Ref: 6Db4568 ;Qt:  110
Total Produit: 88
Ref: 6Da4568 ;Qt:  88
Ref: 6Db4568 ;Qt:  110
Total Produit: 88
Ref: 6Da4568 ;Qt:  88
Ref: 6Db4568 ;Qt:  110
Total Produit: 88
Ref: 6Da4568 ;Qt:  88
Ref: 6Db4568 ;Qt:  110
Total Produit: 88
Ref: 6Da4568 ;Qt:  88
Ref: 6Db4568 ;Qt:  110
Total Produit: 88
Ref: 6Da4568 ;Qt:  88
Ref: 6Db4568 ;Qt:  110
Total Produit: 88
Ref: 6Da4568 ;Qt:  88
Ref: 6Db4568 ;Qt:  110
Total Produit: 88
Ref: 6Da4568 ;Qt:  88
Ref: 6Db4568 ;Qt:  110
Total Produit: 88
Ref: 6Da4568 ;Qt:  88
Ref: 6Db4568 ;Qt:  110
Total Produit: 88
Ref: 6Da4568 ;Qt:  88
Ref: 6Db4568 ;Qt:  110
Total Produit: 88
Ref: 6Da4568 ;Qt:  88
Ref: 6Db4568 ;Qt:  110
Total Produit: 88
Ref: 6Da4568 ;Qt:  88
Ref: 6Db4568 ;Qt:  110
Total Produit: 88
Ref: 6Da4568 ;Qt:  88
Ref: 6Db4568 ;Qt:  110
Total Produit: 88
Ref: 6Da4568 ;Qt:  88
Ref: 6Db4568 ;Qt:  110
Total Produit: 88
Ref: 6Da4568 ;Qt:  88
Ref: 6Db4568 ;Qt:  110
Total Produit: 88
Ref: 6Da4568 ;Qt:  88
Ref: 6Db4568 ;Qt:  110
Total Produit: 88
Ref: 6Da4568 ;Qt:  88
Ref: 6Db4568 ;Qt:  110
Total Produit: 88
Ref: 6Da4568 ;Qt:  88
Ref: 6Db4568 ;Qt:  110
Total Produit: 88
Ref: 6Da4568 ;Qt:  88
Ref: 6Db4568 ;Qt:  110
Total Produit: 88
Ref: 6Da4568 ;Qt:  88
Ref: 6Db4568 ;Qt:  110
Total Produit: 88
Ref: 6Da4568 ;Qt:  88
Ref: 6Db4568 ;Qt:  110
Total Produit: 88
Ref: 6Da4568 ;Qt:  88
Ref: 6Db4568 ;Qt:  110
Total Produit: 88
Ref: 6Da4568 ;Qt:  88
Ref: 6Db4568 ;Qt:  110
Total Produit: 88
Ref: 6Da4568 ;Qt:  88
Ref: 6Db4568 ;Qt:  110
Total Produit: 88
Ref: 6Da4568 ;Qt:  88
Ref: 6Db4568 ;Qt:  110
Total Produit: 88
Ref: 6Da4568 ;Qt:  88
Ref: 6Db4568 ;Qt:  110
Total Produit: 88
Ref: 6Da4568 ;Qt:  88
Ref: 6Db4568 ;Qt:  110
Total Produit: 88
Ref: 6Da4568 ;Qt:  88
Ref: 6Db4568 ;Qt:  110
Total Produit: 88
Ref: 6Da4568 ;Qt:  88
Ref: 6Db4568 ;Qt:  110
Total Produit: 88
Ref: 6Da4568 ;Qt:  88
Ref: 6Db4568 ;Qt:  110
Total Produit: 88
Ref: 6Da4568 ;Qt:  88
Ref: 6Db4568 ;Qt:  110
Total Produit: 88
Ref: 6Da4568 ;Qt:  88
Ref: 6Db4568 ;Qt:  110
Total Produit: 88
Ref: 6Da4568 ;Qt:  88
Ref: 6Db4568 ;Qt:  110
Total Produit: 88
Ref: 6Da4568 ;Qt:  88
Ref: 6Db4568 ;Qt:  110
Total Produit: 88
Ref: 6Da4568 ;Qt:  88
Ref: 6Db4568 ;Qt:  110
Total Produit: 88
Ref: 6Da4568 ;Qt:  88
Ref: 6Db4568 ;Qt:  110
Total Produit: 88
Ref: 6Da4568 ;Qt:  88
Ref: 6Db4568 ;Qt:  110
Total Produit: 88
Ref: 6Da4568 ;Qt:  88
Ref: 6Db4568 ;Qt:  110
Total Produit: 88
Ref: 6Da4568 ;Qt:  88
Ref: 6Db4568 ;Qt:  110
Total Produit: 88
Ref: 6Da4568 ;Qt:  88
Ref: 6Db4568 ;Qt:  110
Total Produit: 88
Ref: 6Da4568 ;Qt:  88
Ref: 6Db4568 ;Qt:  110
Total Produit: 88
Ref: 6Da4568 ;Qt:  88
Ref: 6Db4568 ;Qt:  110
Total Produit: 88
Ref: 6Da4568 ;Qt:  88
Ref: 6Db4568 ;Qt:  110
Total Produit: 88
Ref: 6Da4568 ;Qt:  88
Ref: 6Db4568 ;Qt:  110
Total Produit: 88
Ref: 6Da4568 ;Qt:  88
Ref: 6Db4568 ;Qt:  110
Total Produit: 88
Ref: 6Da4568 ;Qt:  88
Ref: 6Db4568 ;Qt:  110
Total Produit: 88
Ref: 6Da4568 ;Qt:  88
Ref: 6Db4568 ;Qt:  110
Total Produit: 88
Ref: 6Da4568 ;Qt:  88
Ref: 6Db4568 ;Qt:  110
Total Produit: 88
Ref: 6Da4568 ;Qt:  88
Ref: 6Db4568 ;Qt:  110
Total Produit: 88
Ref: 6Da4568 ;Qt:  88
Ref: 6Db4568 ;Qt:  110
Total Produit: 88
Ref: 6Da4568 ;Qt:  88
Ref: 6Db4568 ;Qt:  110
Total Produit: 88
Ref: 6Da4568 ;Qt:  88
Ref: 6Db4568 ;Qt:  110
Total Produit: 88
Ref: 6Da4568 ;Qt:  88
Ref: 6Db4568 ;Qt:  110
Total Produit: 88
Ref: 6Da4568 ;Qt:  88
Ref: 6Db4568 ;Qt:  110
Total Produit: 88
Ref: 6Da4568 ;Qt:  88
Ref: 6Db4568 ;Qt:  110
Total Produit: 88
Ref: 6Da4568 ;Qt:  88
Ref: 6Db4568 ;Qt:  110
Total Produit: 88
Ref: 6Da4568 ;Qt:  88
Ref: 6Db4568 ;Qt:  110
Total Produit: 88
Ref: 6Da4568 ;Qt:  88
Ref: 6Db4568 ;Qt:  110
Total Produit: 88
Ref: 6Da4568 ;Qt:  88
Ref: 6Db4568 ;Qt:  110
Total Produit: 88
Ref: 6Da4568 ;Qt:  88
Ref: 6Db4568 ;Qt:  110
Total Produit: 88
Ref: 6Da4568 ;Qt:  88
Ref: 6Db4568 ;Qt:  110
Total Produit: 88
Ref: 6Da4568 ;Qt:  88
Ref: 6Db4568 ;Qt:  110
Total Produit: 88
Ref: 6Da4568 ;Qt:  88
Ref: 6Db4568 ;Qt:  110
Total Produit: 88
Ref: 6Da4568 ;Qt:  88
Ref: 6Db4568 ;Qt:  110
Total Produit: 88
Ref: 6Da4568 ;Qt:  88
Ref: 6Db4568 ;Qt:  110
Total Produit: 88
Ref: 6Da4568 ;Qt:  88
Ref: 6Db4568 ;Qt:  110
Total Produit: 88
Ref: 6Da4568 ;Qt:  88
Ref: 6Db4568 ;Qt:  110
Total Produit: 88
Ref: 6Da4568 ;Qt:  88
Ref: 6Db4568 ;Qt:  110
Total Produit: 88
Ref: 6Da4568 ;Qt:  88
Ref: 6Db4568 ;Qt:  110
Total Produit: 88
Ref: 6Da4568 ;Qt:  88
Ref: 6Db4568 ;Qt:  110
Total Produit: 88
Ref: 6Da4568 ;Qt:  88
Ref: 6Db4568 ;Qt:  110
Total Produit: 88
Ref: 6Da4568 ;Qt:  88
Ref: 6Db4568 ;Qt:  110
Total Produit: 88
Ref: 6Da4568 ;Qt:  88
Ref: 6Db4568 ;Qt:  110
Total Produit: 88
Ref: 6Da4568 ;Qt:  88
Ref: 6Db4568 ;Qt:  110
Total Produit: 88
Ref: 6Da4568 ;Qt:  88
Ref: 6Db4568 ;Qt:  110
Total Produit: 88
Ref: 6Da4568 ;Qt:  88
Ref: 6Db4568 ;Qt:  110
Total Produit: 88
Ref: 6Da4568 ;Qt:  88
Ref: 6Db4568 ;Qt:  110
Total Produit: 88
Ref: 6Da4568 ;Qt:  88
Ref: 6Db4568 ;Qt:  110
Total Produit: 88
Ref: 6Da4568 ;Qt:  88
Ref: 6Db4568 ;Qt:  110
Total Produit: 88
Ref: 6Da4568 ;Qt:  88
Ref: 6Db4568 ;Qt:  110
Total Produit: 88
Ref: 6Da4568 ;Qt:  88
Ref: 6Db4568 ;Qt:  110
Total Produit: 88
Ref: 6Da4568 ;Qt:  88
Ref: 6Db4568 ;Qt:  110
Total Produit: 88
Ref: 6Da4568 ;Qt:  88
Ref: 6Db4568 ;Qt:  110
Total Produit: 88
Ref: 6Da4568 ;Qt:  88
Ref: 6Db4568 ;Qt:  110
Total Produit: 88
Ref: 6Da4568 ;Qt:  88
Ref: 6Db4568 ;Qt:  110
Total Produit: 88
Ref: 6Da4568 ;Qt:  88
Ref: 6Db4568 ;Qt:  110
Total Produit: 88
Ref: 6Da4568 ;Qt:  88
Ref: 6Db4568 ;Qt:  110
Total Produit: 88
Ref: 6Da4568 ;Qt:  88
Ref: 6Db4568 ;Qt:  110
Total Produit: 88
Ref: 6Da4568 ;Qt:  88
Ref: 6Db4568 ;Qt:  110
Total Produit: 88
Ref: 6Da4568 ;Qt:  88
Ref: 6Db4568 ;Qt:  110
Total Produit: 88
Ref: 6Da4568 ;Qt:  88
Ref: 6Db4568 ;Qt:  110
Total Produit: 88
Ref: 6Da4568 ;Qt:  88
Ref: 6Db4568 ;Qt:  110
Total Produit: 88
Ref: 6Da4568 ;Qt:  88
Ref: 6Db4568 ;Qt:  110
Total Produit: 88
Ref: 6Da4568 ;Qt:  88
Ref: 6Db4568 ;Qt:  110
Total Produit: 88
Ref: 6Da4568 ;Qt:  88
Ref: 6Db4568 ;Qt:  110
Total Produit: 88
Ref: 6Da4568 ;Qt:  88
Ref: 6Db4568 ;Qt:  110
Total Produit: 88
Ref: 6Da4568 ;Qt:  88
Ref: 6Db4568 ;Qt:  110
Total Produit: 88
Ref: 6Da4568 ;Qt:  88
Ref: 6Db4568 ;Qt:  110
Total Produit: 88
Ref: 6Da4568 ;Qt:  88
Ref: 6Db4568 ;Qt:  110
Total Produit: 88
Ref: 6Da4568 ;Qt:  88
Ref: 6Db4568 ;Qt:  110
Total Produit: 88
Ref: 6Da4568 ;Qt:  88
Ref: 6Db4568 ;Qt:  110
Total Produit: 88
Ref: 6Da4568 ;Qt:  88
Ref: 6Db4568 ;Qt:  110
Total Produit: 88
Ref: 6Da4568 ;Qt:  88
Ref: 6Db4568 ;Qt:  110
Total Produit: 88
Ref: 6Da4568 ;Qt:  88
Ref: 6Db4568 ;Qt:  110
Total Produit: 88
Ref: 6Da4568 ;Qt:  88
Ref: 6Db4568 ;Qt:  110
Total Produit: 88
Ref: 6Da4568 ;Qt:  88
Ref: 6Db4568 ;Qt:  110
Total Produit: 88
Ref: 6Da4568 ;Qt:  88
Ref: 6Db4568 ;Qt:  110
Total Produit: 88
Ref: 6Da4568 ;Qt:  88
Ref: 6Db4568 ;Qt:  110
Total Produit: 88
Ref: 6Da4568 ;Qt:  88
Ref: 6Db4568 ;Qt:  110
Total Produit: 88
Ref: 6Da4568 ;Qt:  88
Ref: 6Db4568 ;Qt:  110
Total Produit: 88
Ref: 6Da4568 ;Qt:  88
Ref: 6Db4568 ;Qt:  110
Total Produit: 88
Ref: 6Da4568 ;Qt:  88
Ref: 6Db4568 ;Qt:  110
Total Produit: 88
Ref: 6Da4568 ;Qt:  88
Ref: 6Db4568 ;Qt:  110
Total Produit: 88
Ref: 6Da4568 ;Qt:  88
Ref: 6Db4568 ;Qt:  110
Total Produit: 88
Ref: 6Da4568 ;Qt:  88
Ref: 6Db4568 ;Qt:  110
Total Produit: 88
Ref: 6Da4568 ;Qt:  88
Ref: 6Db4568 ;Qt:  110
Total Produit: 88
Ref: 6Da4568 ;Qt:  88
Ref: 6Db4568 ;Qt:  110
Total Produit: 88
Ref: 6Da4568 ;Qt:  88
Ref: 6Db4568 ;Qt:  110
Total Produit: 88
Ref: 6Da4568 ;Qt:  88
Ref: 6Db4568 ;Qt:  110
Total Produit: 88
Ref: 6Da4568 ;Qt:  88
Ref: 6Db4568 ;Qt:  110
Total Produit: 88
Ref: 6Da4568 ;Qt:  88
Ref: 6Db4568 ;Qt:  110
Total Produit: 88
Ref: 6Da4568 ;Qt:  88
Ref: 6Db4568 ;Qt:  110
Total Produit: 88
Ref: 6Da4568 ;Qt:  88
Ref: 6Db4568 ;Qt:  110
Total Produit: 88
Ref: 6Da4568 ;Qt:  88
Ref: 6Db4568 ;Qt:  110
Total Produit: 88
Ref: 6Da4568 ;Qt:  88
Ref: 6Db4568 ;Qt:  110
Total Produit: 88
Ref: 6Da4568 ;Qt:  88
Ref: 6Db4568 ;Qt:  110
Total Produit: 88
Ref: 6Da4568 ;Qt:  88
Ref: 6Db4568 ;Qt:  110
Total Produit: 88
Ref: 6Da4568 ;Qt:  88
Ref: 6Db4568 ;Qt:  110
Total Produit: 88
Ref: 6Da4568 ;Qt:  88
Ref: 6Db4568 ;Qt:  110
Total Produit: 88
Ref: 6Da4568 ;Qt:  88
Ref: 6Db4568 ;Qt:  110
Total Produit: 88
Ref: 6Da4568 ;Qt:  88
Ref: 6Db4568 ;Qt:  110
Total Produit: 88
Ref: 6Da4568 ;Qt:  88
Ref: 6Db4568 ;Qt:  110
Total Produit: 88
Ref: 6Da4568 ;Qt:  88
Ref: 6Db4568 ;Qt:  110
Total Produit: 88
Ref: 6Da4568 ;Qt:  88
Ref: 6Db4568 ;Qt:  110
Total Produit: 88
Ref: 6Da4568 ;Qt:  88
Ref: 6Db4568 ;Qt:  110
Total Produit: 88
Ref: 6Da4568 ;Qt:  88
Ref: 6Db4568 ;Qt:  110
Total Produit: 88
Ref: 6Da4568 ;Qt:  88
Ref: 6Db4568 ;Qt:  110
Total Produit: 88
Ref: 6Da4568 ;Qt:  88
Ref: 6Db4568 ;Qt:  110
Total Produit: 88
Ref: 6Da4568 ;Qt:  88
Ref: 6Db4568 ;Qt:  110
Total Produit: 88
Ref: 6Da4568 ;Qt:  88
Ref: 6Db4568 ;Qt:  110
Total Produit: 88
Ref: 6Da4568 ;Qt:  88
Ref: 6Db4568 ;Qt:  110
Total Produit: 88
Ref: 6Da4568 ;Qt:  88
Ref: 6Db4568 ;Qt:  110
Total Produit: 88
Ref: 6Da4568 ;Qt:  88
Ref: 6Db4568 ;Qt:  110
Total Produit: 88
Ref: 6Da4568 ;Qt:  88
Ref: 6Db4568 ;Qt:  110
Total Produit: 88
Ref: 6Da4568 ;Qt:  88
Ref: 6Db4568 ;Qt:  110
Total Produit: 88
Ref: 6Da4568 ;Qt:  88
Ref: 6Db4568 ;Qt:  110
Total Produit: 88
Ref: 6Da4568 ;Qt:  88
Ref: 6Db4568 ;Qt:  110
Total Produit: 88
Ref: 6Da4568 ;Qt:  88
Ref: 6Db4568 ;Qt:  110
Total Produit: 88
Ref: 6Da4568 ;Qt:  88
Ref: 6Db4568 ;Qt:  110
Total Produit: 88
Ref: 6Da4568 ;Qt:  88
Ref: 6Db4568 ;Qt:  110
Total Produit: 88
Ref: 6Da4568 ;Qt:  88
Ref: 6Db4568 ;Qt:  110
Total Produit: 88
Ref: 6Da4568 ;Qt:  88
Ref: 6Db4568 ;Qt:  110
Total Produit: 88
Ref: 6Da4568 ;Qt:  88
Ref: 6Db4568 ;Qt:  110
Total Produit: 88
Ref: 6Da4568 ;Qt:  88
Ref: 6Db4568 ;Qt:  110
Total Produit: 88
Ref: 6Da4568 ;Qt:  88
Ref: 6Db4568 ;Qt:  110
Total Produit: 88
Ref: 6Da4568 ;Qt:  88
Ref: 6Db4568 ;Qt:  110
Total Produit: 88
Ref: 6Da4568 ;Qt:  88
Ref: 6Db4568 ;Qt:  110
Total Produit: 88
Ref: 6Da4568 ;Qt:  88
Ref: 6Db4568 ;Qt:  110
Total Produit: 88
Ref: 6Da4568 ;Qt:  88
Ref: 6Db4568 ;Qt:  110
Total Produit: 88
Ref: 6Da4568 ;Qt:  88
Ref: 6Db4568 ;Qt:  110
Total Produit: 88
Ref: 6Da4568 ;Qt:  88
Ref: 6Db4568 ;Qt:  110
Total Produit: 88
Ref: 6Da4568 ;Qt:  88
Ref: 6Db4568 ;Qt:  110
Total Produit: 88
Ref: 6Da4568 ;Qt:  88
Ref: 6Db4568 ;Qt:  110
Total Produit: 88
Ref: 6Da4568 ;Qt:  88
Ref: 6Db4568 ;Qt:  110
Total Produit: 88
Ref: 6Da4568 ;Qt:  88
Ref: 6Db4568 ;Qt:  110
Total Produit: 88
Ref: 6Da4568 ;Qt:  88
Ref: 6Db4568 ;Qt:  110
Total Produit: 88
Ref: 6Da4568 ;Qt:  88
Ref: 6Db4568 ;Qt:  110
Total Produit: 88
Ref: 6Da4568 ;Qt:  88
Ref: 6Db4568 ;Qt:  110
Total Produit: 88
Ref: 6Da4568 ;Qt:  88
Ref: 6Db4568 ;Qt:  110
Total Produit: 88
Ref: 6Da4568 ;Qt:  88
Ref: 6Db4568 ;Qt:  110
Total Produit: 88
Ref: 6Da4568 ;Qt:  88
Ref: 6Db4568 ;Qt:  110
Total Produit: 88
Ref: 6Da4568 ;Qt:  88
Ref: 6Db4568 ;Qt:  110
Total Produit: 88
Ref: 6Da4568 ;Qt:  88
Ref: 6Db4568 ;Qt:  110
Total Produit: 88
Ref: 6Da4568 ;Qt:  88
Ref: 6Db4568 ;Qt:  110
Total Produit: 88
Ref: 6Da4568 ;Qt:  88
Ref: 6Db4568 ;Qt:  110
Total Produit: 88
Ref: 6Da4568 ;Qt:  88
Ref: 6Db4568 ;Qt:  110
Total Produit: 88
Ref: 6Da4568 ;Qt:  88
Ref: 6Db4568 ;Qt:  110
Total Produit: 88
Ref: 6Da4568 ;Qt:  88
Ref: 6Db4568 ;Qt:  110
Total Produit: 88
Ref: 6Da4568 ;Qt:  88
Ref: 6Db4568 ;Qt:  110
Total Produit: 88
Ref: 6Da4568 ;Qt:  88
Ref: 6Db4568 ;Qt:  110
Total Produit: 88
Ref: 6Da4568 ;Qt:  88
Ref: 6Db4568 ;Qt:  110
Total Produit: 88
Ref: 6Da4568 ;Qt:  88
Ref: 6Db4568 ;Qt:  110
Total Produit: 88
Ref: 6Da4568 ;Qt:  88
Ref: 6Db4568 ;Qt:  110
Total Produit: 88
Ref: 6Da4568 ;Qt:  88
Ref: 6Db4568 ;Qt:  110
Total Produit: 88
Ref: 6Da4568 ;Qt:  88
Ref: 6Db4568 ;Qt:  110
Total Produit: 88
Ref: 6Da4568 ;Qt:  88
Ref: 6Db4568 ;Qt:  110
Total Produit: 88
Ref: 6Da4568 ;Qt:  88
Ref: 6Db4568 ;Qt:  110
Total Produit: 88
Ref: 6Da4568 ;Qt:  88
Ref: 6Db4568 ;Qt:  110
Total Produit: 88
Ref: 6Da4568 ;Qt:  88
Ref: 6Db4568 ;Qt:  110
Total Produit: 88
Ref: 6Da4568 ;Qt:  88
Ref: 6Db4568 ;Qt:  110
Total Produit: 88
Ref: 6Da4568 ;Qt:  88
Ref: 6Db4568 ;Qt:  110
Total Produit: 88
Ref: 6Da4568 ;Qt:  88
Ref: 6Db4568 ;Qt:  110
Total Produit: 88
Ref: 6Da4568 ;Qt:  88
Ref: 6Db4568 ;Qt:  110
Total Produit: 88
Ref: 6Da4568 ;Qt:  88
Ref: 6Db4568 ;Qt:  110
Total Produit: 88
Ref: 6Da4568 ;Qt:  88
Ref: 6Db4568 ;Qt:  110
Total Produit: 88
Ref: 6Da4568 ;Qt:  88
Ref: 6Db4568 ;Qt:  110
Total Produit: 88
Ref: 6Da4568 ;Qt:  88
Ref: 6Db4568 ;Qt:  110
Total Produit: 88
Ref: 6Da4568 ;Qt:  88
Ref: 6Db4568 ;Qt:  110
Total Produit: 88
Ref: 6Da4568 ;Qt:  88
Ref: 6Db4568 ;Qt:  110
Total Produit: 88
Ref: 6Da4568 ;Qt:  88
Ref: 6Db4568 ;Qt:  110
Total Produit: 88
Ref: 6Da4568 ;Qt:  88
Ref: 6Db4568 ;Qt:  110
Total Produit: 88
Ref: 6Da4568 ;Qt:  88
Ref: 6Db4568 ;Qt:  110
Total Produit: 88
Ref: 6Da4568 ;Qt:  88
Ref: 6Db4568 ;Qt:  110
Total Produit: 88
Ref: 6Da4568 ;Qt:  88
Ref: 6Db4568 ;Qt:  110
Total Produit: 88
Ref: 6Da4568 ;Qt:  88
Ref: 6Db4568 ;Qt:  110
Total Produit: 88
Ref: 6Da4568 ;Qt:  88
Ref: 6Db4568 ;Qt:  110
Total Produit: 88
Ref: 6Da4568 ;Qt:  88
Ref: 6Db4568 ;Qt:  110
Total Produit: 88
Ref: 6Da4568 ;Qt:  88
Ref: 6Db4568 ;Qt:  110
Total Produit: 88
Ref: 6Da4568 ;Qt:  88
Ref: 6Db4568 ;Qt:  110
Total Produit: 88
Ref: 6Da4568 ;Qt:  88
Ref: 6Db4568 ;Qt:  110
Total Produit: 88
Ref: 6Da4568 ;Qt:  88
Ref: 6Db4568 ;Qt:  110
Total Produit: 88
Ref: 6Da4568 ;Qt:  88
Ref: 6Db4568 ;Qt:  110
Total Produit: 88
Ref: 6Da4568 ;Qt:  88
Ref: 6Db4568 ;Qt:  110
Total Produit: 88
Ref: 6Da4568 ;Qt:  88
Ref: 6Db4568 ;Qt:  110
Total Produit: 88
Ref: 6Da4568 ;Qt:  88
Ref: 6Db4568 ;Qt:  110
Total Produit: 88
Ref: 6Da4568 ;Qt:  88
Ref: 6Db4568 ;Qt:  110
Total Produit: 88
Ref: 6Da4568 ;Qt:  88
Ref: 6Db4568 ;Qt:  110
Total Produit: 88
Ref: 6Da4568 ;Qt:  88
Ref: 6Db4568 ;Qt:  110
Total Produit: 88
Ref: 6Da4568 ;Qt:  88
Ref: 6Db4568 ;Qt:  110
Total Produit: 88
Ref: 6Da4568 ;Qt:  88
Ref: 6Db4568 ;Qt:  110
Total Produit: 88
Ref: 6Da4568 ;Qt:  88
Ref: 6Db4568 ;Qt:  110
Total Produit: 88
Ref: 6Da4568 ;Qt:  88
Ref: 6Db4568 ;Qt:  110
Total Produit: 88
Ref: 6Da4568 ;Qt:  88
Ref: 6Db4568 ;Qt:  110
Total Produit: 88
Ref: 6Da4568 ;Qt:  88
Ref: 6Db4568 ;Qt:  110
Total Produit: 88
Ref: 6Da4568 ;Qt:  88
Ref: 6Db4568 ;Qt:  110
Total Produit: 88
Ref: 6Da4568 ;Qt:  88
Ref: 6Db4568 ;Qt:  110
Total Produit: 88
Ref: 6Da4568 ;Qt:  88
Ref: 6Db4568 ;Qt:  110
Total Produit: 88
Ref: 6Da4568 ;Qt:  88
Ref: 6Db4568 ;Qt:  110
Total Produit: 88
Ref: 6Da4568 ;Qt:  88
Ref: 6Db4568 ;Qt:  110
Total Produit: 88
Ref: 6Da4568 ;Qt:  88
Ref: 6Db4568 ;Qt:  110
Total Produit: 88
Ref: 6Da4568 ;Qt:  88
Ref: 6Db4568 ;Qt:  110
Total Produit: 88
Ref: 6Da4568 ;Qt:  88
Ref: 6Db4568 ;Qt:  110
Total Produit: 88
Ref: 6Da4568 ;Qt:  88
Ref: 6Db4568 ;Qt:  110
Total Produit: 88
Ref: 6Da4568 ;Qt:  88
Ref: 6Db4568 ;Qt:  110
Total Produit: 88
Ref: 6Da4568 ;Qt:  88
Ref: 6Db4568 ;Qt:  110
Total Produit: 88
Ref: 6Da4568 ;Qt:  88
Ref: 6Db4568 ;Qt:  110
Total Produit: 88
Ref: 6Da4568 ;Qt:  88
Ref: 6Db4568 ;Qt:  110
Total Produit: 88
Ref: 6Da4568 ;Qt:  88
Ref: 6Db4568 ;Qt:  110
Total Produit: 88
Ref: 6Da4568 ;Qt:  88
Ref: 6Db4568 ;Qt:  110
Total Produit: 88
Ref: 6Da4568 ;Qt:  88
Ref: 6Db4568 ;Qt:  110
Total Produit: 88
Ref: 6Da4568 ;Qt:  88
Ref: 6Db4568 ;Qt:  110
Total Produit: 88
Ref: 6Da4568 ;Qt:  88
Ref: 6Db4568 ;Qt:  110
Total Produit: 88
Ref: 6Da4568 ;Qt:  88
Ref: 6Db4568 ;Qt:  110
Total Produit: 88
Ref: 6Da4568 ;Qt:  88
Ref: 6Db4568 ;Qt:  110
Total Produit: 88
Ref: 6Da4568 ;Qt:  88
Ref: 6Db4568 ;Qt:  110
Total Produit: 88
Ref: 6Da4568 ;Qt:  88
Ref: 6Db4568 ;Qt:  110
Total Produit: 88
Ref: 6Da4568 ;Qt:  88
Ref: 6Db4568 ;Qt:  110
Total Produit: 88
Ref: 6Da4568 ;Qt:  88
Ref: 6Db4568 ;Qt:  110
Total Produit: 88
Ref: 6Da4568 ;Qt:  88
Ref: 6Db4568 ;Qt:  110
Total Produit: 88
Ref: 6Da4568 ;Qt:  88
Ref: 6Db4568 ;Qt:  110
Total Produit: 88
Ref: 6Da4568 ;Qt:  88
Ref: 6Db4568 ;Qt:  110
Total Produit: 88
Ref: 6Da4568 ;Qt:  88
Ref: 6Db4568 ;Qt:  110
Total Produit: 88
Ref: 6Da4568 ;Qt:  88
Ref: 6Db4568 ;Qt:  110
Total Produit: 88
Ref: 6Da4568 ;Qt:  88
Ref: 6Db4568 ;Qt:  110
Total Produit: 88
Ref: 6Da4568 ;Qt:  88
Ref: 6Db4568 ;Qt:  110
Total Produit: 88
Ref: 6Da4568 ;Qt:  88
Ref: 6Db4568 ;Qt:  110
Total Produit: 88
Ref: 6Da4568 ;Qt:  88
Ref: 6Db4568 ;Qt:  110
Total Produit: 88
Ref: 6Da4568 ;Qt:  88
Ref: 6Db4568 ;Qt:  110
Total Produit: 88
Ref: 6Da4568 ;Qt:  88
Ref: 6Db4568 ;Qt:  110
Total Produit: 88
Ref: 6Da4568 ;Qt:  88
Ref: 6Db4568 ;Qt:  110
Total Produit: 88
Ref: 6Da4568 ;Qt:  88
Ref: 6Db4568 ;Qt:  110
Total Produit: 88
Ref: 6Da4568 ;Qt:  88
Ref: 6Db4568 ;Qt:  110
Total Produit: 88
Ref: 6Da4568 ;Qt:  88
Ref: 6Db4568 ;Qt:  110
Total Produit: 88
Ref: 6Da4568 ;Qt:  88
Ref: 6Db4568 ;Qt:  110
Total Produit: 88
Ref: 6Da4568 ;Qt:  88
Ref: 6Db4568 ;Qt:  110
Total Produit: 88
Ref: 6Da4568 ;Qt:  88
Ref: 6Db4568 ;Qt:  110
Total Produit: 88
Ref: 6Da4568 ;Qt:  88
Ref: 6Db4568 ;Qt:  110
Total Produit: 88
Ref: 6Da4568 ;Qt:  88
Ref: 6Db4568 ;Qt:  110
Total Produit: 88
Ref: 6Da4568 ;Qt:  88
Ref: 6Db4568 ;Qt:  110
Total Produit: 88
Ref: 6Da4568 ;Qt:  88
Ref: 6Db4568 ;Qt:  110
Total Produit: 88
Ref: 6Da4568 ;Qt:  88
Ref: 6Db4568 ;Qt:  110
Total Produit: 88
Ref: 6Da4568 ;Qt:  88
Ref: 6Db4568 ;Qt:  110
Total Produit: 88
Ref: 6Da4568 ;Qt:  88
Ref: 6Db4568 ;Qt:  110
Total Produit: 88
Ref: 6Da4568 ;Qt:  88
Ref: 6Db4568 ;Qt:  110
Total Produit: 88
Ref: 6Da4568 ;Qt:  88
Ref: 6Db4568 ;Qt:  110
Total Produit: 88
Ref: 6Da4568 ;Qt:  88
Ref: 6Db4568 ;Qt:  110
Total Produit: 88
Ref: 6Da4568 ;Qt:  88
Ref: 6Db4568 ;Qt:  110
Total Produit: 88
Ref: 6Da4568 ;Qt:  88
Ref: 6Db4568 ;Qt:  110
Total Produit: 88
Ref: 6Da4568 ;Qt:  88
Ref: 6Db4568 ;Qt:  110
Total Produit: 88
Ref: 6Da4568 ;Qt:  88
Ref: 6Db4568 ;Qt:  110
Total Produit: 88
Ref: 6Da4568 ;Qt:  88
Ref: 6Db4568 ;Qt:  110
Total Produit: 88
Ref: 6Da4568 ;Qt:  88
Ref: 6Db4568 ;Qt:  110
Total Produit: 88
Ref: 6Da4568 ;Qt:  88
Ref: 6Db4568 ;Qt:  110
Total Produit: 88
Ref: 6Da4568 ;Qt:  88
Ref: 6Db4568 ;Qt:  110
Total Produit: 88
Ref: 6Da4568 ;Qt:  88
Ref: 6Db4568 ;Qt:  110
Total Produit: 88
Ref: 6Da4568 ;Qt:  88
Ref: 6Db4568 ;Qt:  110
Total Produit: 88
Ref: 6Da4568 ;Qt:  88
Ref: 6Db4568 ;Qt:  110
Total Produit: 88
Ref: 6Da4568 ;Qt:  88
Ref: 6Db4568 ;Qt:  110
Total Produit: 88
Ref: 6Da4568 ;Qt:  88
Ref: 6Db4568 ;Qt:  110
Total Produit: 88
Ref: 6Da4568 ;Qt:  88
Ref: 6Db4568 ;Qt:  110
Total Produit: 88
Ref: 6Da4568 ;Qt:  88
Ref: 6Db4568 ;Qt:  110
Total Produit: 88
Ref: 6Da4568 ;Qt:  88
Ref: 6Db4568 ;Qt:  110
Total Produit: 88
Ref: 6Da4568 ;Qt:  88
Ref: 6Db4568 ;Qt:  110
Total Produit: 88
Ref: 6Da4568 ;Qt:  88
Ref: 6Db4568 ;Qt:  110
Total Produit: 88
Ref: 6Da4568 ;Qt:  88
Ref: 6Db4568 ;Qt:  110
Total Produit: 88
Ref: 6Da4568 ;Qt:  88
Ref: 6Db4568 ;Qt:  110
Total Produit: 88
Ref: 6Da4568 ;Qt:  88
Ref: 6Db4568 ;Qt:  110
Total Produit: 88
Ref: 6Da4568 ;Qt:  88
Ref: 6Db4568 ;Qt:  110
Total Produit: 88
Ref: 6Da4568 ;Qt:  88
Ref: 6Db4568 ;Qt:  110
Total Produit: 88
Ref: 6Da4568 ;Qt:  88
Ref: 6Db4568 ;Qt:  110
Total Produit: 88
Ref: 6Da4568 ;Qt:  88
Ref: 6Db4568 ;Qt:  110
Total Produit: 88
Ref: 6Da4568 ;Qt:  88
Ref: 6Db4568 ;Qt:  110
Total Produit: 88
Ref: 6Da4568 ;Qt:  88
Ref: 6Db4568 ;Qt:  110
Total Produit: 88
Ref: 6Da4568 ;Qt:  88
Ref: 6Db4568 ;Qt:  110
Total Produit: 88
Ref: 6Da4568 ;Qt:  88
Ref: 6Db4568 ;Qt:  110
Total Produit: 88
Ref: 6Da4568 ;Qt:  88
Ref: 6Db4568 ;Qt:  110
Total Produit: 88
Ref: 6Da4568 ;Qt:  88
Ref: 6Db4568 ;Qt:  110
Total Produit: 88
Ref: 6Da4568 ;Qt:  88
Ref: 6Db4568 ;Qt:  110
Total Produit: 88
Ref: 6Da4568 ;Qt:  88
Ref: 6Db4568 ;Qt:  110
Total Produit: 88
Ref: 6Da4568 ;Qt:  88
Ref: 6Db4568 ;Qt:  110
Total Produit: 88
Ref: 6Da4568 ;Qt:  88
Ref: 6Db4568 ;Qt:  110
Total Produit: 88
Ref: 6Da4568 ;Qt:  88
Ref: 6Db4568 ;Qt:  110
Total Produit: 88
Ref: 6Da4568 ;Qt:  88
Ref: 6Db4568 ;Qt:  110
Total Produit: 88
Ref: 6Da4568 ;Qt:  88
Ref: 6Db4568 ;Qt:  110
Total Produit: 88
Ref: 6Da4568 ;Qt:  88
Ref: 6Db4568 ;Qt:  110
Total Produit: 88
Ref: 6Da4568 ;Qt:  88
Ref: 6Db4568 ;Qt:  110
Total Produit: 88
Ref: 6Da4568 ;Qt:  88
Ref: 6Db4568 ;Qt:  110
Total Produit: 88
Ref: 6Da4568 ;Qt:  88
Ref: 6Db4568 ;Qt:  110
Total Produit: 88
Ref: 6Da4568 ;Qt:  88
Ref: 6Db4568 ;Qt:  110
Total Produit: 88
Ref: 6Da4568 ;Qt:  88
Ref: 6Db4568 ;Qt:  110
Total Produit: 88
Ref: 6Da4568 ;Qt:  88
Ref: 6Db4568 ;Qt:  110
Total Produit: 88
Ref: 6Da4568 ;Qt:  88
Ref: 6Db4568 ;Qt:  110
Total Produit: 88
Ref: 6Da4568 ;Qt:  88
Ref: 6Db4568 ;Qt:  110
Total Produit: 88
Ref: 6Da4568 ;Qt:  88
Ref: 6Db4568 ;Qt:  110
Total Produit: 88
Ref: 6Da4568 ;Qt:  88
Ref: 6Db4568 ;Qt:  110
Total Produit: 88
Ref: 6Da4568 ;Qt:  88
Ref: 6Db4568 ;Qt:  110
Total Produit: 88
Ref: 6Da4568 ;Qt:  88
Ref: 6Db4568 ;Qt:  110
Total Produit: 88
Ref: 6Da4568 ;Qt:  88
Ref: 6Db4568 ;Qt:  110
Total Produit: 88
Ref: 6Da4568 ;Qt:  88
Ref: 6Db4568 ;Qt:  110
Total Produit: 88
Ref: 6Da4568 ;Qt:  88
Ref: 6Db4568 ;Qt:  110
Total Produit: 88
Ref: 6Da4568 ;Qt:  88
Ref: 6Db4568 ;Qt:  110
Total Produit: 88
Ref: 6Da4568 ;Qt:  88
Ref: 6Db4568 ;Qt:  110
Total Produit: 88
Ref: 6Da4568 ;Qt:  88
Ref: 6Db4568 ;Qt:  110
Total Produit: 88
Ref: 6Da4568 ;Qt:  88
Ref: 6Db4568 ;Qt:  110
Total Produit: 88
Ref: 6Da4568 ;Qt:  88
Ref: 6Db4568 ;Qt:  110
Total Produit: 88
Ref: 6Da4568 ;Qt:  88
Ref: 6Db4568 ;Qt:  110
Total Produit: 88
Ref: 6Da4568 ;Qt:  88
Ref: 6Db4568 ;Qt:  110
Total Produit: 88
Ref: 6Da4568 ;Qt:  88
Ref: 6Db4568 ;Qt:  110
Total Produit: 88
Ref: 6Da4568 ;Qt:  88
Ref: 6Db4568 ;Qt:  110
Total Produit: 88
Ref: 6Da4568 ;Qt:  88
Ref: 6Db4568 ;Qt:  110
Total Produit: 88
Ref: 6Da4568 ;Qt:  88
Ref: 6Db4568 ;Qt:  110
Total Produit: 88
Ref: 6Da4568 ;Qt:  88
Ref: 6Db4568 ;Qt:  110
Total Produit: 88
Ref: 6Da4568 ;Qt:  88
Ref: 6Db4568 ;Qt:  110
Total Produit: 88
Ref: 6Da4568 ;Qt:  88
Ref: 6Db4568 ;Qt:  110
Total Produit: 88
Ref: 6Da4568 ;Qt:  88
Ref: 6Db4568 ;Qt:  110
Total Produit: 88
Ref: 6Da4568 ;Qt:  88
Ref: 6Db4568 ;Qt:  110
Total Produit: 88
Ref: 6Da4568 ;Qt:  88
Ref: 6Db4568 ;Qt:  110
Total Produit: 88
Ref: 6Da4568 ;Qt:  88
Ref: 6Db4568 ;Qt:  110
Total Produit: 88
Ref: 6Da4568 ;Qt:  88
Ref: 6Db4568 ;Qt:  110
Total Produit: 88
Ref: 6Da4568 ;Qt:  88
Ref: 6Db4568 ;Qt:  110
Total Produit: 88
Ref: 6Da4568 ;Qt:  88
Ref: 6Db4568 ;Qt:  110
Total Produit: 88
Ref: 6Da4568 ;Qt:  88
Ref: 6Db4568 ;Qt:  110
Total Produit: 88
Ref: 6Da4568 ;Qt:  88
Ref: 6Db4568 ;Qt:  110
Total Produit: 88
Ref: 6Da4568 ;Qt:  88
Ref: 6Db4568 ;Qt:  110
Total Produit: 88
Ref: 6Da4568 ;Qt:  88
Ref: 6Db4568 ;Qt:  110
Total Produit: 88
Ref: 6Da4568 ;Qt:  88
Ref: 6Db4568 ;Qt:  110
Total Produit: 88
Ref: 6Da4568 ;Qt:  88
Ref: 6Db4568 ;Qt:  110
Total Produit: 88
Ref: 6Da4568 ;Qt:  88
Ref: 6Db4568 ;Qt:  110
Total Produit: 88
Ref: 6Da4568 ;Qt:  88
Ref: 6Db4568 ;Qt:  110
Total Produit: 88
Ref: 6Da4568 ;Qt:  88
Ref: 6Db4568 ;Qt:  110
Total Produit: 88
Ref: 6Da4568 ;Qt:  88
Ref: 6Db4568 ;Qt:  110
Total Produit: 88
Ref: 6Da4568 ;Qt:  88
Ref: 6Db4568 ;Qt:  110
Total Produit: 88
Ref: 6Da4568 ;Qt:  88
Ref: 6Db4568 ;Qt:  110
Total Produit: 88
Ref: 6Da4568 ;Qt:  88
Ref: 6Db4568 ;Qt:  110
Total Produit: 88
Ref: 6Da4568 ;Qt:  88
Ref: 6Db4568 ;Qt:  110
Total Produit: 88
Ref: 6Da4568 ;Qt:  88
Ref: 6Db4568 ;Qt:  110
Total Produit: 88
Ref: 6Da4568 ;Qt:  88
Ref: 6Db4568 ;Qt:  110
Total Produit: 88
Ref: 6Da4568 ;Qt:  88
Ref: 6Db4568 ;Qt:  110
Total Produit: 88
Ref: 6Da4568 ;Qt:  88
Ref: 6Db4568 ;Qt:  110
Total Produit: 88
Ref: 6Da4568 ;Qt:  88
Ref: 6Db4568 ;Qt:  110
Total Produit: 88
Ref: 6Da4568 ;Qt:  88
Ref: 6Db4568 ;Qt:  110
Total Produit: 88
Ref: 6Da4568 ;Qt:  88
Ref: 6Db4568 ;Qt:  110
Total Produit: 88
Ref: 6Da4568 ;Qt:  88
Ref: 6Db4568 ;Qt:  110
Total Produit: 88
